Data classes
…
class: middle

.hand\[.light-blue\[ we're just going to scratch the surface of working with dates in R here...\]\]

------------------------------------------------------------------------

.question\[ Calculate and visualise the number of bookings on any given arrival date.\]

```r
hotels %>%
  select(starts_with("arrival_"))
```

```
## # A tibble: 119,390 × 4
##   arrival_date_year arrival_date_month arrival_date_week_number
##               <dbl> <chr>                                 <dbl>
## 1              2015 July                                     27
## 2              2015 July                                     27
## 3              2015 July                                     27
## 4              2015 July                                     27
## 5              2015 July                                     27
## 6              2015 July                                     27
## # … with 119,384 more rows, and 1 more variable:
## #   arrival_date_day_of_month <dbl>
```
…
