…
train a model

perform cross validation

make predictions

Note: The episodes listed in theoffice don’t match the
ones listed in the data we used in the cross
validation lesson.

theoffice %>%
  distinct(season, episode)

## # A tibble: 186 × 2
##   season episode
##    <int>   <int>
## 1      1       1
## 2      1       2
## 3      1       3
## 4      1       4
## 5      1       5
## 6      1       6
## # … with 180 more rows
…
office_wflow <- workflow() %>%
  add_model(office_mod) %>%
  add_recipe(office_rec)

Exercise
8 - Fit the model to training data and interpret a couple of the slope
coefficients.

office_fit <- office_wflow %>%
  fit(data = office_train)

tidy(office_fit)

## # A tibble: 12 × 5
##   term        estimate std.error statistic  p.value
##   <chr>          <dbl>     <dbl>     <dbl>    <dbl>
## 1 (Intercept) 6.34     0.298       21.2    1.24e-43
## 2 season      0.0542   0.0224       2.42   1.68e- 2
## 3 episode     0.0125   0.00439      2.85   5.05e- 3
## 4 total_votes 0.000372 0.0000390    9.55   1.25e-16
## 5 lines_jim   0.653    0.679        0.962  3.38e- 1
## 6 lines_pam   0.0329   0.696        0.0473 9.62e- 1
## # … with 6 more rows
…
office_wflow_old <- workflow() %>%
  add_model(office_mod_old) %>%
  add_recipe(office_rec_old)

office_fit_old <- office_wflow_old %>%
  fit(data = office_train)

tidy(office_fit_old)

## # A tibble: 12 × 5
##   term                estimate std.error statistic  p.value
##   <chr>                  <dbl>     <dbl>     <dbl>    <dbl>
## 1 (Intercept)         7.20     0.188         38.4  9.92e-72
## 2 season             -0.0501   0.0140        -3.57 5.04e- 4
## 3 episode             0.0449   0.00877        5.11 1.13e- 6
## 4 total_votes         0.000360 0.0000404      8.89 4.99e-15
## 5 air_date_month_Feb -0.145    0.139         -1.04 2.99e- 1
## 6 air_date_month_Mar -0.376    0.134         -2.81 5.69e- 3
## # … with 6 more rows
…
