…
-   engineer features based on episode scripts
-   train a model
-   perform cross validation
-   make predictions

Note: The episodes listed in `theoffice` don’t match the ones listed in
the data we used in the [cross validation
lesson](https://ids-s1-20.github.io/slides/week-10/w10-d02-cross-validation/w10-d02-cross-validation.html).

``` r
theoffice %>%
  distinct(season, episode)
```

    ## # A tibble: 186 × 2
    ##    season episode
    ##     <int>   <int>
    ##  1      1       1
    ##  2      1       2
    ##  3      1       3
    ##  4      1       4
    ##  5      1       5
    ##  6      1       6
    ##  7      2       1
    ##  8      2       2
    ##  9      2       3
    ## 10      2       4
    ## # … with 176 more rows
…
