Iteration
…
# First Minister's COVID speeches

---

## 🏁 Start with

<img src="img/fm-speeches.png" width="75%" style="display: block; margin: auto;" />

---

## End with 🛑

```
## # A tibble: 141 x 6
##    title      date       location   abstract      text  url      
##    <chr>      <date>     <chr>      <chr>         <lis> <chr>    
##  1 Coronavir… 2020-10-26 St Andrew… Statement gi… <chr… https://…
##  2 Coronavir… 2020-10-23 St Andrew… Statement gi… <chr… https://…
##  3 Coronavir… 2020-10-22 St Andrew… Statement gi… <chr… https://…
##  4 Coronavir… 2020-10-21 St Andrew… Statement gi… <chr… https://…
##  5 Coronavir… 2020-10-20 St Andrew… Statement gi… <chr… https://…
##  6 Coronavir… 2020-10-19 St Andrew… Statement gi… <chr… https://…
##  7 Coronavir… 2020-10-16 St Andrew… Statement gi… <chr… https://…
##  8 Coronavir… 2020-10-15 Scottish … Statement gi… <chr… https://…
##  9 Coronavir… 2020-10-14 St Andrew… Statement gi… <chr… https://…
## 10 Coronavir… 2020-10-13 St Andrew… Statement gi… <chr… https://…
## 11 Coronavir… 2020-10-12 St Andrew… Statement gi… <chr… https://…
## 12 Coronavir… 2020-10-09 St Andrew… Statement gi… <chr… https://…
## 13 Coronavir… 2020-10-07 Scottish … Statement gi… <chr… https://…
## 14 Coronavir… 2020-10-06 St Andrew… Statement gi… <chr… https://…
## 15 Coronavir… 2020-10-05 St Andrew… Statement gi… <chr… https://…
## # … with 126 more rows
```
…
```r
covid_speeches <- map_dfr(covid_speech_urls, scrape_speech)
```

---

```r
covid_speeches %>%
  print(n = 15)
```

```
## # A tibble: 141 x 6
##    title      date       location   abstract      text  url      
##    <chr>      <date>     <chr>      <chr>         <lis> <chr>    
##  1 Coronavir… 2020-10-26 St Andrew… Statement gi… <chr… https://…
##  2 Coronavir… 2020-10-23 St Andrew… Statement gi… <chr… https://…
##  3 Coronavir… 2020-10-22 St Andrew… Statement gi… <chr… https://…
##  4 Coronavir… 2020-10-21 St Andrew… Statement gi… <chr… https://…
##  5 Coronavir… 2020-10-20 St Andrew… Statement gi… <chr… https://…
##  6 Coronavir… 2020-10-19 St Andrew… Statement gi… <chr… https://…
##  7 Coronavir… 2020-10-16 St Andrew… Statement gi… <chr… https://…
##  8 Coronavir… 2020-10-15 Scottish … Statement gi… <chr… https://…
##  9 Coronavir… 2020-10-14 St Andrew… Statement gi… <chr… https://…
## 10 Coronavir… 2020-10-13 St Andrew… Statement gi… <chr… https://…
## 11 Coronavir… 2020-10-12 St Andrew… Statement gi… <chr… https://…
## 12 Coronavir… 2020-10-09 St Andrew… Statement gi… <chr… https://…
## 13 Coronavir… 2020-10-07 Scottish … Statement gi… <chr… https://…
## 14 Coronavir… 2020-10-06 St Andrew… Statement gi… <chr… https://…
## 15 Coronavir… 2020-10-05 St Andrew… Statement gi… <chr… https://…
## # … with 126 more rows
```
…
