Importing data ⬆️
…
.pull-left[
<br><br><br>
<img src="img/df-na.png" width="100%" style="display: block; margin: auto;" />
]
.pull-right[

```r
read_csv("data/df-na.csv")
```

```
## # A tibble: 9 x 3
##   x     y              z     
##   <chr> <chr>          <chr> 
## 1 1     a              hi    
## 2 <NA>  b              hello 
## 3 3     Not applicable 9999  
## 4 4     d              ola   
## 5 5     e              hola  
## 6 .     f              whatup
## # … with 3 more rows
```
…
## Option 1. Explicit NAs

```r
read_csv("data/df-na.csv", 
         na = c("", "NA", ".", "9999", "Not applicable"))
```

.pull-left[
<br>
<img src="img/df-na.png" width="100%" style="display: block; margin: auto;" />
]
.pull-right[

```
## # A tibble: 9 x 3
##       x y     z     
##   <dbl> <chr> <chr> 
## 1     1 a     hi    
## 2    NA b     hello 
## 3     3 <NA>  <NA>  
## 4     4 d     ola   
## 5     5 e     hola  
## 6    NA f     whatup
## # … with 3 more rows
```
…
.midi[

```r
read_csv("data/df-na.csv", 
  col_types = list(col_double(), col_character(), col_character()))
```

```
## Warning: 1 parsing failure.
## row col expected actual             file
##   6   x a double      . 'data/df-na.csv'
```

```
## # A tibble: 9 x 3
##       x y              z     
##   <dbl> <chr>          <chr> 
## 1     1 a              hi    
## 2    NA b              hello 
## 3     3 Not applicable 9999  
## 4     4 d              ola   
## 5     5 e              hola  
## 6    NA f              whatup
## # … with 3 more rows
```
…
---

.pull-left[
.your-turn[
- [RStudio Cloud](http://rstd.io/dsbox-cloud) > `AE 07 - Nobels and sales + Data import` > open `sales-excel.Rmd` and knit. 
- Load the `sales.xlsx` file from the `data-raw/` folder, using appropriate 
arguments for the `read_excel()` function such that it looks like the following.
If done, see next slide for stretch goal.
]
]
.pull-right[
.midi[

```
## # A tibble: 9 x 2
##   id      n    
##   <chr>   <chr>
## 1 Brand 1 n    
## 2 1234    8    
## 3 8721    2    
## 4 1822    3    
## 5 Brand 2 n    
## 6 3333    1    
## # … with 3 more rows
```
]
]

---

.pull-left[
.your-turn[
- [RStudio Cloud](http://rstd.io/dsbox-cloud) > `AE 07 - Nobels and sales + Data import` > open `sales-excel.Rmd` and knit. 
- **Stretch goal:** Manipulate the sales data such that it looks like the following.
]
]
.pull-right[

```
## # A tibble: 7 x 3
##   brand      id     n
##   <chr>   <dbl> <dbl>
## 1 Brand 1  1234     8
## 2 Brand 1  8721     2
## 3 Brand 1  1822     3
## 4 Brand 2  3333     1
## 5 Brand 2  2156     3
## 6 Brand 2  3987     6
## # … with 1 more row
```
…
```
## data/sales/01-sales.csv data/sales/02-sales.csv data/sales/03-sales.csv
```

```r
library(vroom)
sales <- vroom(sales_files, id = "filename")
sales
```

```
## # A tibble: 19 x 6
##   filename                month    year brand  item     n
##   <chr>                   <chr>   <dbl> <dbl> <dbl> <dbl>
## 1 data/sales/01-sales.csv January  2019     1  1234     3
## 2 data/sales/01-sales.csv January  2019     1  8721     9
## 3 data/sales/01-sales.csv January  2019     1  1822     2
## 4 data/sales/01-sales.csv January  2019     2  3333     1
## 5 data/sales/01-sales.csv January  2019     2  2156     9
## 6 data/sales/01-sales.csv January  2019     2  3987     6
## # … with 13 more rows
```
…
