HW 05 - Money in US politics
…
First, we need to filter the data for UK contributions as well as years only up to 2018:

pac_all %>%
  filter(
    country == "UK",
    year < 2020
    ) 

## # A tibble: 480 x 7
##    name                    country parent        total   dems repubs  year
##    <chr>                   <chr>   <chr>         <dbl>  <dbl>  <dbl> <dbl>
##  1 AE Staley Manufacturin UK      Tate & Lyle   30500   3500  27000  1998
##  2 Allied Domecq Spirits  UK      Allied Dome  39500  11000  28500  1998
##  3 Bacardi Corp            UK      Bacardi Ltd       0      0      0  1998
##  4 Bacardi-Martini USA     UK      Bacardi Ltd    8500   3500   5000  1998
##  5 Blue Circle America     UK      Blue Circle  31850   2250  29600  1998
##  6 BOC Group               UK      BOC Group         0      0      0  1998
##  7 BP America              UK      British Pet 122361  31250  91111  1998
##  8 Brown & Williamson Tob UK      BAT Industr 350821  90000 260821  1998
##  9 GEC-Marconi Electronic UK      General Ele  27600  10600  17000  1998
## 10 Glaxo Wellcome Inc      UK      Glaxo Wellc 406001 110825 295176  1998
## #  with 470 more rows
…
This results in a 11x3 tibble (11 years, and a column each for year, total contributions in that year to the Democratic party, and total contributions in that year to the Republican party). Ultimately we want to color the lines by party though, and this requires our data to be formatted a little differently:

## # A tibble: 22 x 3
##     year party       amount
##    <dbl> <chr>        <dbl>
##  1  1998 Democrat    700573
##  2  1998 Republican 1424749
##  3  2000 Democrat    918675
##  4  2000 Republican 1980734
##  5  2002 Democrat    918441
##  6  2002 Republican 1851117
##  7  2004 Democrat   1110927
##  8  2004 Republican 2120354
##  9  2006 Democrat   1379325
## 10  2006 Republican 2786836
## #  with 12 more rows
…
