Data tidying and reshaping 🧹
…
---

## Pivot staff data

```r
staff %>%
  pivot_longer(
    cols = -faculty_type, 
    names_to = "year", 
    values_to = "percentage"
    )
```

```
## # A tibble: 55 x 3
##   faculty_type              year  percentage
##   <chr>                     <chr>      <dbl>
## 1 Full-Time Tenured Faculty 1975        29  
## 2 Full-Time Tenured Faculty 1989        27.6
## 3 Full-Time Tenured Faculty 1993        25  
## 4 Full-Time Tenured Faculty 1995        24.8
## 5 Full-Time Tenured Faculty 1999        21.8
## 6 Full-Time Tenured Faculty 2001        20.3
## # … with 49 more rows
```
…
## Pivot staff data, and save result

```r
staff_long <- staff %>%
  pivot_longer(
    cols = -faculty_type, 
    names_to = "year", 
    values_to = "percentage"
    )

staff_long
```

```
## # A tibble: 55 x 3
##   faculty_type              year  percentage
##   <chr>                     <chr>      <dbl>
## 1 Full-Time Tenured Faculty 1975        29  
## 2 Full-Time Tenured Faculty 1989        27.6
## 3 Full-Time Tenured Faculty 1993        25  
## 4 Full-Time Tenured Faculty 1995        24.8
## 5 Full-Time Tenured Faculty 1999        21.8
## 6 Full-Time Tenured Faculty 2001        20.3
## # … with 49 more rows
```
…
---

## Read data 

```r
library(readxl)
rel_inc <- read_excel("data/relig-income.xlsx") # directly from Excel!
```

.small[

```
## # A tibble: 12 x 6
##   `Religious trad… `Less than $30,… `$30,000-$49,99… `$50,000-$99,99… `$100,000 or mo… `Sample Size`
##   <chr>                       <dbl>            <dbl>            <dbl>            <dbl>         <dbl>
## 1 Buddhist                     0.36             0.18             0.32             0.13           233
## 2 Catholic                     0.36             0.19             0.26             0.19          6137
## 3 Evangelical Pro…             0.35             0.22             0.28             0.14          7462
## 4 Hindu                        0.17             0.13             0.34             0.36           172
## 5 Historically Bl…             0.53             0.22             0.17             0.08          1704
## 6 Jehovah's Witne…             0.48             0.25             0.22             0.04           208
## # … with 6 more rows
```
…
## Rename columns

.midi[

```r
rel_inc %>%
  rename(
    religion = `Religious tradition`,
    n = `Sample Size`
  )
```

```
## # A tibble: 12 x 6
##   religion             `Less than $30,00… `$30,000-$49,999` `$50,000-$99,99… `$100,000 or mor…     n
##   <chr>                             <dbl>             <dbl>            <dbl>             <dbl> <dbl>
## 1 Buddhist                           0.36              0.18             0.32              0.13   233
## 2 Catholic                           0.36              0.19             0.26              0.19  6137
## 3 Evangelical Protest…               0.35              0.22             0.28              0.14  7462
## 4 Hindu                              0.17              0.13             0.34              0.36   172
## 5 Historically Black …               0.53              0.22             0.17              0.08  1704
## 6 Jehovah's Witness                  0.48              0.25             0.22              0.04   208
## # … with 6 more rows
```
…
```r
rel_inc %>%
  rename(
    religion = `Religious tradition`,
    n = `Sample Size`
  ) %>%
  pivot_longer(
    cols = -c(religion, n),   # all but religion and n
    names_to = "income", 
    values_to = "proportion"
  )
```

```
## # A tibble: 48 x 4
##   religion     n income            proportion
##   <chr>    <dbl> <chr>                  <dbl>
## 1 Buddhist   233 Less than $30,000       0.36
## 2 Buddhist   233 $30,000-$49,999         0.18
## 3 Buddhist   233 $50,000-$99,999         0.32
## 4 Buddhist   233 $100,000 or more        0.13
## 5 Catholic  6137 Less than $30,000       0.36
## 6 Catholic  6137 $30,000-$49,999         0.19
## # … with 42 more rows
```
…
```
## # A tibble: 48 x 5
##   religion     n income            proportion frequency
##   <chr>    <dbl> <chr>                  <dbl>     <dbl>
## 1 Buddhist   233 Less than $30,000       0.36        84
## 2 Buddhist   233 $30,000-$49,999         0.18        42
## 3 Buddhist   233 $50,000-$99,999         0.32        75
## 4 Buddhist   233 $100,000 or more        0.13        30
## 5 Catholic  6137 Less than $30,000       0.36      2209
## 6 Catholic  6137 $30,000-$49,999         0.19      1166
## # … with 42 more rows
```
…
