Iteration
…
# First Minister's COVID speeches

---

## 🏁 Start with

<img src="img/fm-speeches.png" width="75%" style="display: block; margin: auto;" />

---

## End with 🛑

```
## # A tibble: 218 × 6
##    title                 date       location abstract text  url  
##    <chr>                 <date>     <chr>    <chr>    <chr> <chr>
##  1 Coronavirus (COVID-1… 2021-04-20 St Andr… Stateme… "Goo… http…
##  2 Coronavirus (COVID-1… 2021-04-13 St Andr… Stateme… "Tha… http…
##  3 Coronavirus (COVID-1… 2021-04-06 St Andr… Stateme… "Goo… http…
##  4 Coronavirus (COVID-1… 2021-03-30 St Andr… Stateme… "Tha… http…
##  5 Coronavirus (COVID-1… 2021-03-24 Scottis… Stateme… "Tha… http…
##  6 Coronavirus (Covid-1… 2021-03-23 The Sco… Stateme… "Pre… http…
##  7 Coronavirus (COVID-1… 2021-03-18 Scottis… Stateme… "Tha… http…
##  8 Coronavirus (COVID-1… 2021-03-17 St Andr… Stateme… "\nG… http…
##  9 Coronavirus (COVID-1… 2021-03-16 Scottis… Stateme… "Pre… http…
## 10 Coronavirus (COVID-1… 2021-03-15 St Andr… Stateme… "\nG… http…
## 11 Coronavirus (COVID-1… 2021-03-11 Scottis… Stateme… "I c… http…
## 12 Coronavirus (COVID-1… 2021-03-09 Scottis… Stateme… "Pre… http…
## 13 Coronavirus (COVID-1… 2021-03-05 Scottis… Parliam… "Hel… http…
## 14 Coronavirus (COVID-1… 2021-03-04 Scottis… Parliam… "I w… http…
## 15 Coronavirus (COVID-1… 2021-03-02 Scottis… Stateme… "Pre… http…
## # … with 203 more rows
```
…
```r
covid_speeches <- map_dfr(covid_speech_urls, scrape_speech)
```

---

```r
covid_speeches %>%
  print(n = 15)
```

```
## # A tibble: 218 × 6
##    title                 date       location abstract text  url  
##    <chr>                 <date>     <chr>    <chr>    <chr> <chr>
##  1 Coronavirus (COVID-1… 2021-04-20 St Andr… Stateme… "Goo… http…
##  2 Coronavirus (COVID-1… 2021-04-13 St Andr… Stateme… "Tha… http…
##  3 Coronavirus (COVID-1… 2021-04-06 St Andr… Stateme… "Goo… http…
##  4 Coronavirus (COVID-1… 2021-03-30 St Andr… Stateme… "Tha… http…
##  5 Coronavirus (COVID-1… 2021-03-24 Scottis… Stateme… "Tha… http…
##  6 Coronavirus (Covid-1… 2021-03-23 The Sco… Stateme… "Pre… http…
##  7 Coronavirus (COVID-1… 2021-03-18 Scottis… Stateme… "Tha… http…
##  8 Coronavirus (COVID-1… 2021-03-17 St Andr… Stateme… "\nG… http…
##  9 Coronavirus (COVID-1… 2021-03-16 Scottis… Stateme… "Pre… http…
## 10 Coronavirus (COVID-1… 2021-03-15 St Andr… Stateme… "\nG… http…
## 11 Coronavirus (COVID-1… 2021-03-11 Scottis… Stateme… "I c… http…
## 12 Coronavirus (COVID-1… 2021-03-09 Scottis… Stateme… "Pre… http…
## 13 Coronavirus (COVID-1… 2021-03-05 Scottis… Parliam… "Hel… http…
## 14 Coronavirus (COVID-1… 2021-03-04 Scottis… Parliam… "I w… http…
## 15 Coronavirus (COVID-1… 2021-03-02 Scottis… Stateme… "Pre… http…
## # … with 203 more rows
```
…
