Web scraping 🕸
…
## Analyze

.question[
How would you go about answering this question: Which 1995 movies made the list?
]

--

```r
imdb_top_250 %>% 
  filter(year == 1995)
```

```
## # A tibble: 8 x 4
##   title               year score  rank
##   <chr>              <dbl> <dbl> <int>
## 1 Seven               1995   8.6    20
## 2 The Usual Suspects  1995   8.5    33
## 3 Braveheart          1995   8.3    78
## 4 Toy Story           1995   8.3    81
## 5 Heat                1995   8.2   124
## 6 Casino              1995   8.2   141
## # … with 2 more rows
```
…
