Model validation and logistic regression ✅
…
```r
9 %% 5
```

```
## [1] 4
```

--

.pull-left[

```
## # A tibble: 8 x 2
##     obs  fold
##   <int> <int>
## 1     1     1
## 2     2     2
## 3     3     3
## 4     4     4
## 5     5     5
## 6     6     1
## # … with 2 more rows
```
…
