Central Limit Theorem
…
---

## Sampling distribution

```r
sampling <- norm_pop %>%
  rep_sample_n(size = 50, replace = TRUE, reps = 1000) %>%
  group_by(replicate) %>%
  summarise(xbar = mean(x))
sampling
```

```
## # A tibble: 1,000 x 2
##    replicate  xbar
##        <int> <dbl>
##  1         1  19.9
##  2         2  19.6
##  3         3  19.6
##  4         4  20.8
##  5         5  20.1
##  6         6  20.2
##  7         7  20.2
##  8         8  20.5
##  9         9  19.7
## 10        10  19.8
## # ... with 990 more rows
```
…
