Central Limit Theorem
…
---

## Sampling distribution

```r
sampling <- norm_pop %>%
  rep_sample_n(size = 50, replace = TRUE, reps = 1000) %>%
  group_by(replicate) %>%
  summarise(xbar = mean(x))
sampling
```

```
## # A tibble: 1,000 x 2
##    replicate  xbar
##        <int> <dbl>
##  1         1  20.4
##  2         2  20.3
##  3         3  19.7
##  4         4  20.4
##  5         5  20.2
##  6         6  19.3
##  7         7  19.4
##  8         8  19.9
##  9         9  19.7
## 10        10  20.2
## # … with 990 more rows
```
…
