Tips for effective data visualization 💅
…
---

class: center, middle

# Why do we visualize?

---

## Data: `datasaurus_dozen`

Below is an exceprt from the `datasaurus_dozen` dataset:

```
## # A tibble: 142 x 8
##    away_x away_y bullseye_x bullseye_y circle_x circle_y dino_x dino_y
##     <dbl>  <dbl>      <dbl>      <dbl>    <dbl>    <dbl>  <dbl>  <dbl>
##  1   32.3   61.4       51.2       83.3     56.0     79.3   55.4   97.2
##  2   53.4   26.2       59.0       85.5     50.0     79.0   51.5   96.0
##  3   63.9   30.8       51.9       85.8     51.3     82.4   46.2   94.5
##  4   70.3   82.5       48.2       85.0     51.2     79.2   42.8   91.4
##  5   34.1   45.7       41.7       84.0     44.4     78.2   40.8   88.3
##  6   67.7   37.1       37.9       82.6     45.0     77.9   38.7   84.9
##  7   53.3   97.5       39.5       80.8     48.6     78.8   35.6   79.9
##  8   63.5   25.1       39.6       82.7     42.1     76.9   33.1   77.6
##  9   68.0   81.0       34.8       80.0     41.0     76.4   29.0   74.5
## 10   67.4   29.7       27.6       72.8     34.6     72.7   26.2   71.4
## # ... with 132 more rows
```
…
## Summary statistics

.question[
.midi[
Write pseudo-code for calculating the correlation of (`x`,`y`) for each of the 
thirteen `dataset`s? Based on the summary statistics, how similar do the 
relationships between `x` and `y` in the thirteen datasets look?
]
]

.pull-left[

```
## # A tibble: 1,846 x 3
##    dataset     x     y
##    <chr>   <dbl> <dbl>
##  1 dino     55.4  97.2
##  2 dino     51.5  96.0
##  3 dino     46.2  94.5
##  4 dino     42.8  91.4
##  5 dino     40.8  88.3
##  6 dino     38.7  84.9
##  7 dino     35.6  79.9
##  8 dino     33.1  77.6
##  9 dino     29.0  74.5
## 10 dino     26.2  71.4
## # ... with 1,836 more rows
```
…
