Scientific studies, confounding, and Simpson’s paradox
…
- We have information on whether the applicant was male or female and whether they were admitted or rejected. 

- First, we will evaluate whether the percentage of males admitted is indeed higher than females, overall. Next, we will calculate the same percentage for each department.

---

## Data

```r
ucb_admit <- read_csv("../../data/ucb-admit.csv")
ucb_admit
```

```
## # A tibble: 4,526 x 3
##    Admit    Gender Dept 
##    <chr>    <chr>  <chr>
##  1 Admitted Male   A    
##  2 Admitted Male   A    
##  3 Admitted Male   A    
##  4 Admitted Male   A    
##  5 Admitted Male   A    
##  6 Admitted Male   A    
##  7 Admitted Male   A    
##  8 Admitted Male   A    
##  9 Admitted Male   A    
## 10 Admitted Male   A    
## # ... with 4,516 more rows
```
…
---

## Gender distribution, by department

.question[
What can you say about the by department gender distribution?
]

```r
ucb_admit %>%
  count(Dept, Gender, Admit)     # --->
```

```
## # A tibble: 24 x 4
##    Dept  Gender Admit        n
##    <chr> <chr>  <chr>    <int>
##  1 A     Female Admitted    89
##  2 A     Female Rejected    19
##  3 A     Male   Admitted   512
##  4 A     Male   Rejected   313
##  5 B     Female Admitted    17
##  6 B     Female Rejected     8
##  7 B     Male   Admitted   353
##  8 B     Male   Rejected   207
##  9 C     Female Admitted   202
## 10 C     Female Rejected   391
## # ... with 14 more rows
```
…
