Quantifying uncertainty 👢
…
---

## Sample

Fifteen 3 BR flats in Edinburgh were randomly selected on rightmove.co.uk.

```r
library(tidyverse)
edi_3br <- read_csv2("data/edi-3br.csv") # ; separated
```

.small[

```
## # A tibble: 15 x 4
##   flat_id  rent title                       address                                    
##   <chr>   <dbl> <chr>                       <chr>                                      
## 1 flat_01   825 3 bedroom apartment to rent Burnhead Grove, Edinburgh, Midlothian, EH16
## 2 flat_02  2400 3 bedroom flat to rent      Simpson Loan, Quartermile, Edinburgh, EH3  
## 3 flat_03  1900 3 bedroom flat to rent      FETTES ROW, NEW TOWN, EH3 6SE              
## 4 flat_04  1500 3 bedroom apartment to rent Eyre Crescent, Edinburgh, Midlothian       
## 5 flat_05  3250 3 bedroom flat to rent      Walker Street, Edinburgh                   
## 6 flat_06  2145 3 bedroom flat to rent      George Street, City Centre, Edinburgh, EH2 
## # … with 9 more rows
```
…
---

## The bootstrap sample

.question[
How many observations are there in `boot_df`? What does each observation represent?
]

```r
boot_df
```

```
## # A tibble: 15,000 x 2
##   replicate  stat
##       <int> <dbl>
## 1         1 1793.
## 2         2 1938.
## 3         3 2175 
## 4         4 2159.
## 5         5 2084 
## 6         6 1761 
## # … with 14,994 more rows
```
…
