The language of models 📈
…
## Height & landscape features (cont.)

- **Slope:** Paintings with landscape features are expected, on average,
to be 5.65 inches shorter than paintings that without landscape features.
    - Compares baseline level (`landsALL = 0`) to other level
    (`landsALL = 1`).
- **Intercept:** Paintings that don't have landscape features are expected, on 
average, to be 22.68 inches tall.

---

## Categorical predictor with 2 levels

```
## # A tibble: 8 x 3
##   name     price landsALL
##   <chr>    <dbl>    <dbl>
## 1 L1764-2    360        0
## 2 L1764-3      6        0
## 3 L1764-4     12        1
## 4 L1764-5a     6        1
## 5 L1764-5b     6        1
## 6 L1764-6      9        0
## # … with 2 more rows
```

---

## Relationship between height and school

.small[

```r
m_ht_sch <- lm(Height_in ~ school_pntg, data = pp)
tidy(m_ht_sch)
```

```
## # A tibble: 7 x 5
##   term            estimate std.error statistic p.value
##   <chr>              <dbl>     <dbl>     <dbl>   <dbl>
## 1 (Intercept)        14.        10.0     1.40  0.162  
## 2 school_pntgD/FL     2.33      10.0     0.232 0.816  
## 3 school_pntgF       10.2       10.0     1.02  0.309  
## 4 school_pntgG        1.65      11.9     0.139 0.889  
## 5 school_pntgI       10.3       10.0     1.02  0.306  
## 6 school_pntgS       30.4       11.4     2.68  0.00744
## # … with 1 more row
```
]

- When the categorical explanatory variable has many levels, they're encoded to
**dummy variables**.
- Each coefficient describes the expected difference between heights in that 
particular school compared to the baseline level.

---

## Categorical predictor with >2 levels

```
## # A tibble: 7 x 7
## # Groups:   school_pntg [7]
##   school_pntg  D_FL     F     G     I     S     X
##   <chr>       <int> <int> <int> <int> <int> <int>
## 1 A               0     0     0     0     0     0
## 2 D/FL            1     0     0     0     0     0
## 3 F               0     1     0     0     0     0
## 4 G               0     0     1     0     0     0
## 5 I               0     0     0     1     0     0
## 6 S               0     0     0     0     1     0
## # … with 1 more row
```
…
