Tidy data and data wrangling 🔧
…
---

## Summary tables 

.question[
Is each of the following a dataset or a summary table?
]

.midi[
.pull-left[

```
## # A tibble: 87 x 3
##    name               height  mass
##    <chr>               <int> <dbl>
##  1 Luke Skywalker        172    77
##  2 C-3PO                 167    75
##  3 R2-D2                  96    32
##  4 Darth Vader           202   136
##  5 Leia Organa           150    49
##  6 Owen Lars             178   120
##  7 Beru Whitesun lars    165    75
##  8 R5-D4                  97    32
##  9 Biggs Darklighter     183    84
## 10 Obi-Wan Kenobi        182    77
## # … with 77 more rows
```
…
---

## Select a single column

View only the `lead_time` type (number of days between booking and arrival date):

--
.pull-left[

```r
select(.data = hotels, lead_time)
```

```
## # A tibble: 119,390 x 1
##    lead_time
##        <dbl>
##  1       342
##  2       737
##  3         7
##  4        13
##  5        14
##  6        14
##  7         0
##  8         9
##  9        85
## 10        75
## # … with 119,380 more rows
```
…
---

.tip[
You can skip the argument name for the first two arguments of a function.
]

.pull-left[

```r
select(.data = hotels, lead_time)
```

```
## # A tibble: 119,390 x 1
##    lead_time
##        <dbl>
##  1       342
##  2       737
##  3         7
##  4        13
##  5        14
##  6        14
##  7         0
##  8         9
##  9        85
## 10        75
## # … with 119,380 more rows
```
]
.pull-right[

```r
select(hotels, lead_time)
```

```
## # A tibble: 119,390 x 1
##    lead_time
##        <dbl>
##  1       342
##  2       737
##  3         7
##  4        13
##  5        14
##  6        14
##  7         0
##  8         9
##  9        85
## 10        75
## # … with 119,380 more rows
```
…
## Select multiple columns

View only the `hotel` type and `lead_time`:

--

.pull-left[

```r
select(hotels, hotel, lead_time)
```

```
## # A tibble: 119,390 x 2
##    hotel        lead_time
##    <chr>            <dbl>
##  1 Resort Hotel       342
##  2 Resort Hotel       737
##  3 Resort Hotel         7
##  4 Resort Hotel        13
##  5 Resort Hotel        14
##  6 Resort Hotel        14
##  7 Resort Hotel         0
##  8 Resort Hotel         9
##  9 Resort Hotel        85
## 10 Resort Hotel        75
## # … with 119,380 more rows
```
…
---

## Data wrangling, step-by-step

.pull-left[
Select:

```r
hotels %>%
  select(hotel, lead_time)
```

```
## # A tibble: 119,390 x 2
##    hotel        lead_time
##    <chr>            <dbl>
##  1 Resort Hotel       342
##  2 Resort Hotel       737
##  3 Resort Hotel         7
##  4 Resort Hotel        13
##  5 Resort Hotel        14
##  6 Resort Hotel        14
##  7 Resort Hotel         0
##  8 Resort Hotel         9
##  9 Resort Hotel        85
## 10 Resort Hotel        75
## # … with 119,380 more rows
```
]

--
.pull-right[
Select, then arrange:

```r
hotels %>%
  select(hotel, lead_time) %>%
  arrange(desc(lead_time))
```

```
## # A tibble: 119,390 x 2
##    hotel        lead_time
##    <chr>            <dbl>
##  1 Resort Hotel       737
##  2 Resort Hotel       709
##  3 City Hotel         629
##  4 City Hotel         629
##  5 City Hotel         629
##  6 City Hotel         629
##  7 City Hotel         629
##  8 City Hotel         629
##  9 City Hotel         629
## 10 City Hotel         629
## # … with 119,380 more rows
```
…
.pull-left[
- Start with the data frame `hotels`, and pass it to the `select()` function,
]
.pull-right[
.small[

```r
*hotels %>%
  select(hotel, lead_time) %>%
  arrange(desc(lead_time))
```

```
## # A tibble: 119,390 x 2
##    hotel        lead_time
##    <chr>            <dbl>
##  1 Resort Hotel       737
##  2 Resort Hotel       709
##  3 City Hotel         629
##  4 City Hotel         629
##  5 City Hotel         629
##  6 City Hotel         629
##  7 City Hotel         629
##  8 City Hotel         629
##  9 City Hotel         629
## 10 City Hotel         629
## # … with 119,380 more rows
```
…
.pull-left[
- Start with the data frame `hotels`, and pass it to the `select()` function,
- then we select the variables `hotel` and `lead_time`,
]
.pull-right[
.small[

```r
hotels %>%
* select(hotel, lead_time) %>%
  arrange(desc(lead_time))
```

```
## # A tibble: 119,390 x 2
##    hotel        lead_time
##    <chr>            <dbl>
##  1 Resort Hotel       737
##  2 Resort Hotel       709
##  3 City Hotel         629
##  4 City Hotel         629
##  5 City Hotel         629
##  6 City Hotel         629
##  7 City Hotel         629
##  8 City Hotel         629
##  9 City Hotel         629
## 10 City Hotel         629
## # … with 119,380 more rows
```
…
```r
hotels %>%
  select(hotel, lead_time) %>% 
* arrange(desc(lead_time))
```

```
## # A tibble: 119,390 x 2
##    hotel        lead_time
##    <chr>            <dbl>
##  1 Resort Hotel       737
##  2 Resort Hotel       709
##  3 City Hotel         629
##  4 City Hotel         629
##  5 City Hotel         629
##  6 City Hotel         629
##  7 City Hotel         629
##  8 City Hotel         629
##  9 City Hotel         629
## 10 City Hotel         629
## # … with 119,380 more rows
```
…
```
## Error in select(hotel, lead_time): object 'hotel' not found
```

✅

```r
hotels %>%
  select(hotel, lead_time)
```

```
## # A tibble: 119,390 x 2
##   hotel        lead_time
##   <chr>            <dbl>
## 1 Resort Hotel       342
## 2 Resort Hotel       737
## 3 Resort Hotel         7
## 4 Resort Hotel        13
## 5 Resort Hotel        14
## 6 Resort Hotel        14
## # … with 119,384 more rows
```
…
.huge-blue[have] .hand[a single data frame]

.huge-pink[want] .hand[to slice it, and dice it, and juice it, and process it]

---

## `select` to keep variables

```r
hotels %>%
* select(hotel, lead_time)
```

```
## # A tibble: 119,390 x 2
##    hotel        lead_time
##    <chr>            <dbl>
##  1 Resort Hotel       342
##  2 Resort Hotel       737
##  3 Resort Hotel         7
##  4 Resort Hotel        13
##  5 Resort Hotel        14
##  6 Resort Hotel        14
##  7 Resort Hotel         0
##  8 Resort Hotel         9
##  9 Resort Hotel        85
## 10 Resort Hotel        75
## # … with 119,380 more rows
```

---

## `select` to exclude variables

.small[

```r
hotels %>%
* select(-agent)
```

```
## # A tibble: 119,390 x 31
##    hotel is_canceled lead_time arrival_date_ye… arrival_date_mo… arrival_date_we… arrival_date_da… stays_in_weeken…
##    <chr>       <dbl>     <dbl>            <dbl> <chr>                       <dbl>            <dbl>            <dbl>
##  1 Reso…           0       342             2015 July                           27                1                0
##  2 Reso…           0       737             2015 July                           27                1                0
##  3 Reso…           0         7             2015 July                           27                1                0
##  4 Reso…           0        13             2015 July                           27                1                0
##  5 Reso…           0        14             2015 July                           27                1                0
##  6 Reso…           0        14             2015 July                           27                1                0
##  7 Reso…           0         0             2015 July                           27                1                0
##  8 Reso…           0         9             2015 July                           27                1                0
##  9 Reso…           1        85             2015 July                           27                1                0
## 10 Reso…           1        75             2015 July                           27                1                0
## # … with 119,380 more rows, and 23 more variables: stays_in_week_nights <dbl>, adults <dbl>, children <dbl>, babies <dbl>,
## #   meal <chr>, country <chr>, market_segment <chr>, distribution_channel <chr>, is_repeated_guest <dbl>,
## #   previous_cancellations <dbl>, previous_bookings_not_canceled <dbl>, reserved_room_type <chr>, assigned_room_type <chr>,
## #   booking_changes <dbl>, deposit_type <chr>, company <chr>, days_in_waiting_list <dbl>, customer_type <chr>, adr <dbl>,
## #   required_car_parking_spaces <dbl>, total_of_special_requests <dbl>, reservation_status <chr>,
## #   reservation_status_date <date>
```
]

---

## `select` a range of variables

```r
hotels %>%
* select(hotel:arrival_date_month)
```

```
## # A tibble: 119,390 x 5
##    hotel        is_canceled lead_time arrival_date_year arrival_date_month
##    <chr>              <dbl>     <dbl>             <dbl> <chr>             
##  1 Resort Hotel           0       342              2015 July              
##  2 Resort Hotel           0       737              2015 July              
##  3 Resort Hotel           0         7              2015 July              
##  4 Resort Hotel           0        13              2015 July              
##  5 Resort Hotel           0        14              2015 July              
##  6 Resort Hotel           0        14              2015 July              
##  7 Resort Hotel           0         0              2015 July              
##  8 Resort Hotel           0         9              2015 July              
##  9 Resort Hotel           1        85              2015 July              
## 10 Resort Hotel           1        75              2015 July              
## # … with 119,380 more rows
```

---

## `select` variables with certain characteristics

```r
hotels %>%
* select(starts_with("arrival"))
```

```
## # A tibble: 119,390 x 4
##    arrival_date_year arrival_date_month arrival_date_week_number arrival_date_day_of_month
##                <dbl> <chr>                                 <dbl>                     <dbl>
##  1              2015 July                                     27                         1
##  2              2015 July                                     27                         1
##  3              2015 July                                     27                         1
##  4              2015 July                                     27                         1
##  5              2015 July                                     27                         1
##  6              2015 July                                     27                         1
##  7              2015 July                                     27                         1
##  8              2015 July                                     27                         1
##  9              2015 July                                     27                         1
## 10              2015 July                                     27                         1
## # … with 119,380 more rows
```

---

## `select` variables with certain characteristics

```r
hotels %>%
* select(ends_with("type"))
```

```
## # A tibble: 119,390 x 4
##    reserved_room_type assigned_room_type deposit_type customer_type
##    <chr>              <chr>              <chr>        <chr>        
##  1 C                  C                  No Deposit   Transient    
##  2 C                  C                  No Deposit   Transient    
##  3 A                  C                  No Deposit   Transient    
##  4 A                  A                  No Deposit   Transient    
##  5 A                  A                  No Deposit   Transient    
##  6 A                  A                  No Deposit   Transient    
##  7 C                  C                  No Deposit   Transient    
##  8 C                  C                  No Deposit   Transient    
##  9 A                  A                  No Deposit   Transient    
## 10 D                  D                  No Deposit   Transient    
## # … with 119,380 more rows
```
…
---

## `arrange` in ascending / descending order

.pull-left[

```r
hotels %>%
  select(adults, children, babies) %>%
* arrange(babies)
```

```
## # A tibble: 119,390 x 3
##    adults children babies
##     <dbl>    <dbl>  <dbl>
##  1      2        0      0
##  2      2        0      0
##  3      1        0      0
##  4      1        0      0
##  5      2        0      0
##  6      2        0      0
##  7      2        0      0
##  8      2        0      0
##  9      2        0      0
## 10      2        0      0
## # … with 119,380 more rows
```
]
.pull-right[

```r
hotels %>%
  select(adults, children, babies) %>%
* arrange(desc(babies))
```

```
## # A tibble: 119,390 x 3
##    adults children babies
##     <dbl>    <dbl>  <dbl>
##  1      2        0     10
##  2      1        0      9
##  3      2        0      2
##  4      2        0      2
##  5      2        0      2
##  6      2        0      2
##  7      2        0      2
##  8      2        0      2
##  9      2        0      2
## 10      2        0      2
## # … with 119,380 more rows
```
…
---

## `filter` to select a subset of rows

.midi[

```r
# bookings in City Hotels
hotels %>%
* filter(hotel == "City Hotel")
```

```
## # A tibble: 79,330 x 32
##    hotel is_canceled lead_time arrival_date_ye… arrival_date_mo… arrival_date_we… arrival_date_da… stays_in_weeken…
##    <chr>       <dbl>     <dbl>            <dbl> <chr>                       <dbl>            <dbl>            <dbl>
##  1 City…           0         6             2015 July                           27                1                0
##  2 City…           1        88             2015 July                           27                1                0
##  3 City…           1        65             2015 July                           27                1                0
##  4 City…           1        92             2015 July                           27                1                2
##  5 City…           1       100             2015 July                           27                2                0
##  6 City…           1        79             2015 July                           27                2                0
##  7 City…           0         3             2015 July                           27                2                0
##  8 City…           1        63             2015 July                           27                2                1
##  9 City…           1        62             2015 July                           27                2                2
## 10 City…           1        62             2015 July                           27                2                2
## # … with 79,320 more rows, and 24 more variables: stays_in_week_nights <dbl>, adults <dbl>, children <dbl>, babies <dbl>,
## #   meal <chr>, country <chr>, market_segment <chr>, distribution_channel <chr>, is_repeated_guest <dbl>,
## #   previous_cancellations <dbl>, previous_bookings_not_canceled <dbl>, reserved_room_type <chr>, assigned_room_type <chr>,
## #   booking_changes <dbl>, deposit_type <chr>, agent <chr>, company <chr>, days_in_waiting_list <dbl>, customer_type <chr>,
## #   adr <dbl>, required_car_parking_spaces <dbl>, total_of_special_requests <dbl>, reservation_status <chr>,
## #   reservation_status_date <date>
```
…
---

## `filter` for many conditions at once

```r
hotels %>%
  filter( 
*   adults == 0,
*   children >= 1
    ) %>% 
  select(adults, babies, children)
```

```
## # A tibble: 223 x 3
##    adults babies children
##     <dbl>  <dbl>    <dbl>
##  1      0      0        3
##  2      0      0        2
##  3      0      0        2
##  4      0      0        2
##  5      0      0        2
##  6      0      0        3
##  7      0      1        2
##  8      0      0        2
##  9      0      0        2
## 10      0      0        2
## # … with 213 more rows
```
…
## `filter` for more complex conditions

```r
# bookings with no adults and some children or babies in the room
hotels %>%
  filter( 
    adults == 0,     
*   children >= 1 | babies >= 1     # | means or
    ) %>%
  select(adults, babies, children)
```

```
## # A tibble: 223 x 3
##    adults babies children
##     <dbl>  <dbl>    <dbl>
##  1      0      0        3
##  2      0      0        2
##  3      0      0        2
##  4      0      0        2
##  5      0      0        2
##  6      0      0        3
##  7      0      1        2
##  8      0      0        2
##  9      0      0        2
## 10      0      0        2
## # … with 213 more rows
```
…
---

## `mutate` to add a new variable

```r
hotels %>%
* mutate(little_ones = children + babies) %>%
  select(children, babies, little_ones) %>%
  arrange(desc(little_ones))
```

```
## # A tibble: 119,390 x 3
##    children babies little_ones
##       <dbl>  <dbl>       <dbl>
##  1       10      0          10
##  2        0     10          10
##  3        0      9           9
##  4        2      1           3
##  5        2      1           3
##  6        2      1           3
##  7        3      0           3
##  8        2      1           3
##  9        2      1           3
## 10        3      0           3
## # … with 119,380 more rows
```
…
```r
# Resort Hotel
hotels %>%
  mutate(little_ones = children + babies) %>%
  filter(
    little_ones >= 1,
    hotel == "Resort Hotel"
    ) %>%
  select(hotel, little_ones)
```

```
## # A tibble: 3,929 x 2
##    hotel        little_ones
##    <chr>              <dbl>
##  1 Resort Hotel           1
##  2 Resort Hotel           2
##  3 Resort Hotel           2
##  4 Resort Hotel           2
##  5 Resort Hotel           1
##  6 Resort Hotel           1
##  7 Resort Hotel           2
##  8 Resort Hotel           2
##  9 Resort Hotel           1
## 10 Resort Hotel           1
## # … with 3,919 more rows
```
…
```r
# City Hotel
hotels %>%
  mutate(little_ones = children + babies) %>%
  filter(
    little_ones > 1,
    hotel == "City Hotel"
    )  %>%
  select(hotel, little_ones)
```

```
## # A tibble: 2,140 x 2
##    hotel      little_ones
##    <chr>            <dbl>
##  1 City Hotel           2
##  2 City Hotel           2
##  3 City Hotel           2
##  4 City Hotel           2
##  5 City Hotel           2
##  6 City Hotel           2
##  7 City Hotel           2
##  8 City Hotel           2
##  9 City Hotel           2
## 10 City Hotel           3
## # … with 2,130 more rows
```
…
