Simpson’s paradox
…
## Berkeley admission data

- Study carried out by the Graduate Division of the University of California, Berkeley in the early 70’s to evaluate whether there was a gender bias in graduate admissions.
- The data come from six departments. For confidentiality we'll call them A-F. 
- We have information on whether the applicant was male or female and whether they were admitted or rejected. 
- First, we will evaluate whether the percentage of males admitted is indeed higher than females, overall. Next, we will calculate the same percentage for each department.

---

## Data

.pull-left[

```
## # A tibble: 4,526 × 3
##    admit    gender dept 
##    <fct>    <fct>  <ord>
##  1 Admitted Male   A    
##  2 Admitted Male   A    
##  3 Admitted Male   A    
##  4 Admitted Male   A    
##  5 Admitted Male   A    
##  6 Admitted Male   A    
##  7 Admitted Male   A    
##  8 Admitted Male   A    
##  9 Admitted Male   A    
## 10 Admitted Male   A    
## 11 Admitted Male   A    
## 12 Admitted Male   A    
## 13 Admitted Male   A    
## 14 Admitted Male   A    
## 15 Admitted Male   A    
## # … with 4,511 more rows
```
…
]

---

.question[
What can you say about the gender distribution by department ?
]

```r
ucbadmit %>%
  count(dept, gender, admit)
```

```
## # A tibble: 24 × 4
##   dept  gender admit        n
##   <ord> <fct>  <fct>    <int>
## 1 A     Female Rejected    19
## 2 A     Female Admitted    89
## 3 A     Male   Rejected   313
## 4 A     Male   Admitted   512
## 5 B     Female Rejected     8
## 6 B     Female Admitted    17
## # … with 18 more rows
```
…
---

class: middle

# Simpson's paradox

---

## Relationship between two variables

.pull-left[

```
## # A tibble: 8 × 3
##       x     y z    
##   <dbl> <dbl> <chr>
## 1     2     4 A    
## 2     3     3 A    
## 3     4     2 A    
## 4     5     1 A    
## 5     6    11 B    
## 6     7    10 B    
## # … with 2 more rows
```
]
.pull-right[
<img src="u2-d16-simpsons-paradox_files/figure-html/unnamed-chunk-13-1.png" width="100%" style="display: block; margin: auto;" />
]

---

## Relationship between two variables

.pull-left[

```
## # A tibble: 8 × 3
##       x     y z    
##   <dbl> <dbl> <chr>
## 1     2     4 A    
## 2     3     3 A    
## 3     4     2 A    
## 4     5     1 A    
## 5     6    11 B    
## 6     7    10 B    
## # … with 2 more rows
```
]
.pull-right[
<img src="u2-d16-simpsons-paradox_files/figure-html/unnamed-chunk-15-1.png" width="100%" style="display: block; margin: auto;" />
]

---

## Considering a third variable

.pull-left[

```
## # A tibble: 8 × 3
##       x     y z    
##   <dbl> <dbl> <chr>
## 1     2     4 A    
## 2     3     3 A    
## 3     4     2 A    
## 4     5     1 A    
## 5     6    11 B    
## 6     7    10 B    
## # … with 2 more rows
```
]
.pull-right[
<img src="u2-d16-simpsons-paradox_files/figure-html/unnamed-chunk-17-1.png" width="100%" style="display: block; margin: auto;" />
]

---

## Relationship between three variables

.pull-left[

```
## # A tibble: 8 × 3
##       x     y z    
##   <dbl> <dbl> <chr>
## 1     2     4 A    
## 2     3     3 A    
## 3     4     2 A    
## 4     5     1 A    
## 5     6    11 B    
## 6     7    10 B    
## # … with 2 more rows
```
…
---

## What does group_by() do?

`group_by()` takes an existing data frame and converts it into a grouped data frame where subsequent operations are performed "once per group"

.pull-left[

```r
ucbadmit
```

```
## # A tibble: 4,526 × 3
##   admit    gender dept 
##   <fct>    <fct>  <ord>
## 1 Admitted Male   A    
## 2 Admitted Male   A    
## 3 Admitted Male   A    
## 4 Admitted Male   A    
## 5 Admitted Male   A    
## 6 Admitted Male   A    
## # … with 4,520 more rows
```
]
.pull-right[

```r
ucbadmit %>% 
  group_by(gender)
```

```
## # A tibble: 4,526 × 3
## # Groups:   gender [2]
##   admit    gender dept 
##   <fct>    <fct>  <ord>
## 1 Admitted Male   A    
## 2 Admitted Male   A    
## 3 Admitted Male   A    
## 4 Admitted Male   A    
## 5 Admitted Male   A    
## 6 Admitted Male   A    
## # … with 4,520 more rows
```
…
---

## What does group_by() not do?

`group_by()` does not sort the data, `arrange()` does

.pull-left[

```r
ucbadmit %>% 
  group_by(gender)
```

```
## # A tibble: 4,526 × 3
## # Groups:   gender [2]
##   admit    gender dept 
##   <fct>    <fct>  <ord>
## 1 Admitted Male   A    
## 2 Admitted Male   A    
## 3 Admitted Male   A    
## 4 Admitted Male   A    
## 5 Admitted Male   A    
## 6 Admitted Male   A    
## # … with 4,520 more rows
```
]
.pull-right[

```r
ucbadmit %>% 
  arrange(gender)
```

```
## # A tibble: 4,526 × 3
##   admit    gender dept 
##   <fct>    <fct>  <ord>
## 1 Admitted Female A    
## 2 Admitted Female A    
## 3 Admitted Female A    
## 4 Admitted Female A    
## 5 Admitted Female A    
## 6 Admitted Female A    
## # … with 4,520 more rows
```
…
---

## What does group_by() not do?

`group_by()` does not create frequency tables, `count()` does

.pull-left[

```r
ucbadmit %>% 
  group_by(gender)
```

```
## # A tibble: 4,526 × 3
## # Groups:   gender [2]
##   admit    gender dept 
##   <fct>    <fct>  <ord>
## 1 Admitted Male   A    
## 2 Admitted Male   A    
## 3 Admitted Male   A    
## 4 Admitted Male   A    
## 5 Admitted Male   A    
## 6 Admitted Male   A    
## # … with 4,520 more rows
```
…
