Hypothesis testing
…
.small[

```r
null_dist <- organ_donor %>%
  specify(response = outcome, success = "complication") %>%
  hypothesize(null = "point", p = c("complication" = 0.10, "no complication" = 0.90)) %>% 
  generate(reps = 100, type = "simulate") %>% 
  calculate(stat = "prop")
```
]

```
## Response: outcome (factor)
## Null Hypothesis: point
## # A tibble: 100 × 2
##   replicate  stat
##       <dbl> <dbl>
## 1         1 0.161
## 2         2 0.081
## 3         3 0.161
## 4         4 0.145
## 5         5 0.097
## 6         6 0.145
## # … with 94 more rows
```
…
