Modeling non-linear relationships
…
ggplot(ht_wt_fit_aug, mapping = aes(x = .fitted, y = .resid)) +
  geom_point(alpha = 0.5) +
  geom_hline(yintercept = 0, color = "gray", lty = "dashed") +
  labs(x = "Predicted height", y = "Residuals")
```
]

.panel[.panel-name[Augment]

```r
ht_wt_fit_aug
```

```
## # A tibble: 3,135 × 9
##    .rownames Height_in Width_in .fitted  .resid     .hat .sigma
##    <chr>         <dbl>    <dbl>   <dbl>   <dbl>    <dbl>  <dbl>
##  1 1                37     29.5   26.7  10.3    0.000399   8.30
##  2 2                18     14     14.6   3.45   0.000396   8.31
##  3 3                13     16     16.1  -3.11   0.000361   8.31
##  4 4                14     18     17.7  -3.68   0.000337   8.31
##  5 5                14     18     17.7  -3.68   0.000337   8.31
##  6 6                 7     10     11.4  -4.43   0.000498   8.31
##  7 7                 6     13     13.8  -7.77   0.000418   8.30
##  8 8                 6     13     13.8  -7.77   0.000418   8.30
##  9 9                15     15     15.3  -0.333  0.000377   8.31
## 10 10                9      7      9.09 -0.0870 0.000601   8.31
## # … with 3,125 more rows, and 2 more variables: .cooksd <dbl>,
## #   .std.resid <dbl>
```
…
