Scientific studies and confounding 😖
…
---

## Berkeley admission data

- Study carried out by the graduate Division of the University of California, Berkeley in the early 70’s to evaluate whether there was a gender bias in graduate admissions.
- The data come from six departments. For confidentiality we'll call them A-F. 
- We have information on whether the applicant was male or female and whether they were admitted or rejected. 
- First, we will evaluate whether the percentage of males admitted is indeed higher than females, overall. Next, we will calculate the same percentage for each department.

---

## Data

```
## # A tibble: 4,526 x 3
##   admit    gender dept 
##   <fct>    <fct>  <ord>
## 1 Admitted Male   A    
## 2 Admitted Male   A    
## 3 Admitted Male   A    
## 4 Admitted Male   A    
## 5 Admitted Male   A    
## 6 Admitted Male   A    
## # … with 4,520 more rows
```
…
---

## Gender distribution, by department

.question[
What can you say about the gender distribution by department ?
]

```r
ucbadmit %>%
  count(dept, gender, admit)
```

```
## # A tibble: 24 x 4
##   dept  gender admit        n
##   <ord> <fct>  <fct>    <int>
## 1 A     Female Rejected    19
## 2 A     Female Admitted    89
## 3 A     Male   Rejected   313
## 4 A     Male   Admitted   512
## 5 B     Female Rejected     8
## 6 B     Female Admitted    17
## # … with 18 more rows
```
…
.small[

```r
ucbadmit %>%
  count(dept, gender, admit) %>%
  group_by(dept, gender) %>%
  mutate(perc_admit = n / sum(n)) %>%
  filter(admit == "Admitted")
```

```
## # A tibble: 12 x 5
## # Groups:   dept, gender [12]
##   dept  gender admit        n perc_admit
##   <ord> <fct>  <fct>    <int>      <dbl>
## 1 A     Female Admitted    89      0.824
## 2 A     Male   Admitted   512      0.621
## 3 B     Female Admitted    17      0.68 
## 4 B     Male   Admitted   353      0.630
## 5 C     Female Admitted   202      0.341
## 6 C     Male   Admitted   120      0.369
## # … with 6 more rows
```
…
---

## What does group_by() do?

`group_by()` takes an existing `tbl` and converts it into a grouped `tbl` where operations are performed "by group":

.pull-left[

```r
ucbadmit
```

```
## # A tibble: 4,526 x 3
##   admit    gender dept 
##   <fct>    <fct>  <ord>
## 1 Admitted Male   A    
## 2 Admitted Male   A    
## 3 Admitted Male   A    
## 4 Admitted Male   A    
## 5 Admitted Male   A    
## 6 Admitted Male   A    
## # … with 4,520 more rows
```
]
.pull-right[

```r
ucbadmit %>% 
  group_by(gender)
```

```
## # A tibble: 4,526 x 3
## # Groups:   gender [2]
##   admit    gender dept 
##   <fct>    <fct>  <ord>
## 1 Admitted Male   A    
## 2 Admitted Male   A    
## 3 Admitted Male   A    
## 4 Admitted Male   A    
## 5 Admitted Male   A    
## 6 Admitted Male   A    
## # … with 4,520 more rows
```
…
---

## What does group_by() not do?

`group_by()` does not sort the data, `arrange()` does:

.pull-left[

```r
ucbadmit %>% 
  group_by(gender)
```

```
## # A tibble: 4,526 x 3
## # Groups:   gender [2]
##   admit    gender dept 
##   <fct>    <fct>  <ord>
## 1 Admitted Male   A    
## 2 Admitted Male   A    
## 3 Admitted Male   A    
## 4 Admitted Male   A    
## 5 Admitted Male   A    
## 6 Admitted Male   A    
## # … with 4,520 more rows
```
]
.pull-right[

```r
ucbadmit %>% 
  arrange(gender)
```

```
## # A tibble: 4,526 x 3
##   admit    gender dept 
##   <fct>    <fct>  <ord>
## 1 Admitted Female A    
## 2 Admitted Female A    
## 3 Admitted Female A    
## 4 Admitted Female A    
## 5 Admitted Female A    
## 6 Admitted Female A    
## # … with 4,520 more rows
```
…
---

## What does group_by() not do?

`group_by()` does not create frequency tables, `count()` does:

.pull-left[

```r
ucbadmit %>% 
  group_by(gender)
```

```
## # A tibble: 4,526 x 3
## # Groups:   gender [2]
##   admit    gender dept 
##   <fct>    <fct>  <ord>
## 1 Admitted Male   A    
## 2 Admitted Male   A    
## 3 Admitted Male   A    
## 4 Admitted Male   A    
## 5 Admitted Male   A    
## 6 Admitted Male   A    
## # … with 4,520 more rows
```
…
