Feature engineering
…
---

## Make predictions for test data

```r
email_pred <- predict(email_fit, test_data, type = "prob") %>% 
  bind_cols(test_data) 

email_pred
```

```
## # A tibble: 784 x 23
##   .pred_0 .pred_1 spam  to_multiple from     cc sent_email
##     <dbl>   <dbl> <fct> <fct>       <fct> <int> <fct>     
## 1   0.960 0.0404  0     0           1         0 0         
## 2   0.937 0.0634  0     0           1         0 0         
## 3   0.923 0.0766  0     0           1         0 1         
## 4   0.999 0.00144 0     0           1         2 0         
## 5   0.904 0.0955  0     0           1         0 0         
## 6   0.908 0.0919  0     0           1         0 0         
## # … with 778 more rows, and 16 more variables: time <dttm>,
## #   image <dbl>, attach <dbl>, dollar <dbl>, winner <fct>,
## #   inherit <dbl>, viagra <dbl>, password <dbl>, num_char <dbl>,
## #   line_breaks <int>, format <fct>, re_subj <fct>,
## #   exclaim_subj <dbl>, urgent_subj <fct>, exclaim_mess <dbl>,
## #   number <fct>
```
…
