Tidytext analysis
…
---

## What is tidy text?

```r
text_df %>%
  unnest_tokens(word, text)
```

```
## # A tibble: 32 x 2
##     line word   
##    <int> <chr>  
##  1     1 take   
##  2     1 me     
##  3     1 out    
##  4     1 tonight
##  5     2 where  
##  6     2 there's
##  7     2 music  
##  8     2 and    
##  9     2 there's
## 10     2 people 
## # … with 22 more rows
```
…
```
## Joining, by = c("track_title", "track_n", "track_url")
```

```r
marc
```

```
## # A tibble: 808 x 4
##    track_title track_n  line lyric                                         
##    <chr>         <int> <int> <chr>                                         
##  1 Black Jeep        1     1 Mama used to pick me up in a black Jeep       
##  2 Black Jeep        1     2 Turn me to the countryside from the city stre…
##  3 Black Jeep        1     3 And my daddy wasn't doing well, he wasn't doi…
##  4 Black Jeep        1     4 "He tell me, \"Go inside and say farewell, go…
##  5 Black Jeep        1     5 And pull over, let me out                     
##  6 Black Jeep        1     6 Let me jump in the backseat, put the windows …
##  7 Black Jeep        1     7 We got a black Jeep to get us over            
##  8 Black Jeep        1     8 We got a black Jeep for starting over         
##  9 Black Jeep        1     9 We got a black Jeep, it's four wheel drive    
## 10 Black Jeep        1    10 We got a black Jeep, we'll still survive      
## # … with 798 more rows
```
…
---

## Tidy up your lyrics!

```r
marc_lyrics <- marc %>%
  unnest_tokens(word, lyric)

marc_lyrics
```

```
## # A tibble: 6,397 x 6
##    track_title track_n  line album          artist        word 
##    <chr>         <int> <int> <chr>          <chr>         <chr>
##  1 Black Jeep        1     1 Gossip Columns Marc E. Bassy mama 
##  2 Black Jeep        1     1 Gossip Columns Marc E. Bassy used 
##  3 Black Jeep        1     1 Gossip Columns Marc E. Bassy to   
##  4 Black Jeep        1     1 Gossip Columns Marc E. Bassy pick 
##  5 Black Jeep        1     1 Gossip Columns Marc E. Bassy me   
##  6 Black Jeep        1     1 Gossip Columns Marc E. Bassy up   
##  7 Black Jeep        1     1 Gossip Columns Marc E. Bassy in   
##  8 Black Jeep        1     1 Gossip Columns Marc E. Bassy a    
##  9 Black Jeep        1     1 Gossip Columns Marc E. Bassy black
## 10 Black Jeep        1     1 Gossip Columns Marc E. Bassy jeep 
## # … with 6,387 more rows
```

---

## What are the most common words?

```r
marc_lyrics %>%
  count(word) %>%
  arrange(desc(n))
```

```
## # A tibble: 895 x 2
##    word      n
##    <chr> <int>
##  1 you     268
##  2 i       263
##  3 me      182
##  4 the     167
##  5 a       139
##  6 to      109
##  7 that     93
##  8 my       90
##  9 love     87
## 10 don't    86
## # … with 885 more rows
```
…
- In computing, stop words are words which are filtered out before or after processing of natural language data (text).

- They usually refer to the most common words in a language, but there is not a single list of stop words used by all natural language processing tools.

---

## Spanish stop words

```r
get_stopwords(language = "es")
```

```
## # A tibble: 308 x 2
##    word  lexicon 
##    <chr> <chr>   
##  1 de    snowball
##  2 la    snowball
##  3 que   snowball
##  4 el    snowball
##  5 en    snowball
##  6 y     snowball
##  7 a     snowball
##  8 los   snowball
##  9 del   snowball
## 10 se    snowball
## # … with 298 more rows
```

---

## Various lexicons

See `?get_stopwords` for more info.

```r
get_stopwords(source = "smart")
```

```
## # A tibble: 571 x 2
##    word        lexicon
##    <chr>       <chr>  
##  1 a           smart  
##  2 a's         smart  
##  3 able        smart  
##  4 about       smart  
##  5 above       smart  
##  6 according   smart  
##  7 accordingly smart  
##  8 across      smart  
##  9 actually    smart  
## 10 after       smart  
## # … with 561 more rows
```
…
## What are the most common words?

```r
marc_lyrics %>%
  anti_join(get_stopwords(source = "smart")) %>%
  count(word) %>%
  arrange(desc(n))
```

```
## Joining, by = "word"
```

```
## # A tibble: 660 x 2
##    word        n
##    <chr>   <int>
##  1 love       87
##  2 yeah       85
##  3 til        49
##  4 baby       39
##  5 hit        33
##  6 wanna      31
##  7 plot       30
##  8 twist      30
##  9 thought    28
## 10 girl       26
## # … with 650 more rows
```
…
- and the sentiment content of the whole text as the sum of the sentiment content of the individual words

---

## Sentiment lexicons

.pull-left[

```r
get_sentiments("afinn")
```

```
## # A tibble: 2,477 x 2
##    word       value
##    <chr>      <dbl>
##  1 abandon       -2
##  2 abandoned     -2
##  3 abandons      -2
##  4 abducted      -2
##  5 abduction     -2
##  6 abductions    -2
##  7 abhor         -3
##  8 abhorred      -3
##  9 abhorrent     -3
## 10 abhors        -3
## # … with 2,467 more rows
```
]
.pull-right[

```r
get_sentiments("bing") 
```

```
## # A tibble: 6,786 x 2
##    word        sentiment
##    <chr>       <chr>    
##  1 2-faces     negative 
##  2 abnormal    negative 
##  3 abolish     negative 
##  4 abominable  negative 
##  5 abominably  negative 
##  6 abominate   negative 
##  7 abomination negative 
##  8 abort       negative 
##  9 aborted     negative 
## 10 aborts      negative 
## # … with 6,776 more rows
```
]

---

## Sentiment lexicons

.pull-left[

```r
get_sentiments(lexicon = "bing")
```

```
## # A tibble: 6,786 x 2
##    word        sentiment
##    <chr>       <chr>    
##  1 2-faces     negative 
##  2 abnormal    negative 
##  3 abolish     negative 
##  4 abominable  negative 
##  5 abominably  negative 
##  6 abominate   negative 
##  7 abomination negative 
##  8 abort       negative 
##  9 aborted     negative 
## 10 aborts      negative 
## # … with 6,776 more rows
```
]
.pull-right[

```r
get_sentiments(lexicon = "loughran") 
```

```
## # A tibble: 4,150 x 2
##    word         sentiment
##    <chr>        <chr>    
##  1 abandon      negative 
##  2 abandoned    negative 
##  3 abandoning   negative 
##  4 abandonment  negative 
##  5 abandonments negative 
##  6 abandons     negative 
##  7 abdicated    negative 
##  8 abdicates    negative 
##  9 abdicating   negative 
## 10 abdication   negative 
## # … with 4,140 more rows
```
…
## Sentiments in Marc's lyrics

```r
marc_lyrics %>%
  inner_join(get_sentiments("bing")) %>%
  count(sentiment, word) %>%
  arrange(desc(n))
```

```
## Joining, by = "word"
```

```
## # A tibble: 128 x 3
##    sentiment word        n
##    <chr>     <chr>   <int>
##  1 positive  love       87
##  2 positive  like       65
##  3 negative  plot       30
##  4 negative  twist      30
##  5 negative  shit       19
##  6 negative  fuck       17
##  7 negative  bondage    14
##  8 negative  bad        10
##  9 negative  naughty     9
## 10 positive  nice        9
## # … with 118 more rows
```
…
Without stop words:

```r
ldoc_lyrics %>%
  anti_join(get_stopwords(source = "smart")) %>%
  count(artist, word, sort = TRUE) # alternative way to sort
```

```
## Joining, by = "word"
```

```
## # A tibble: 1,292 x 3
##    artist        word      n
##    <chr>         <chr> <int>
##  1 Marc E. Bassy love     87
##  2 Marc E. Bassy yeah     85
##  3 Seeb          love     65
##  4 Marc E. Bassy til      49
##  5 Marc E. Bassy baby     39
##  6 Seeb          high     34
##  7 Marc E. Bassy hit      33
##  8 Marc E. Bassy wanna    31
##  9 Marc E. Bassy plot     30
## 10 Marc E. Bassy twist    30
## # … with 1,282 more rows
```
…
---

## Calculating tf-idf

This is not that exciting... What's the issue?

```r
ldoc_words <- ldoc_lyrics_counts %>%
  bind_tf_idf(word, artist, n)

ldoc_words
```

```
## # A tibble: 1,848 x 6
##    artist        word      n     tf   idf tf_idf
##    <chr>         <chr> <int>  <dbl> <dbl>  <dbl>
##  1 Marc E. Bassy you     268 0.0419     0      0
##  2 Marc E. Bassy i       263 0.0411     0      0
##  3 Marc E. Bassy me      182 0.0285     0      0
##  4 Quinn XCII    i       173 0.0455     0      0
##  5 Marc E. Bassy the     167 0.0261     0      0
##  6 Quinn XCII    you     155 0.0408     0      0
##  7 Marc E. Bassy a       139 0.0217     0      0
##  8 Seeb          you     123 0.0632     0      0
##  9 Quinn XCII    the     115 0.0302     0      0
## 10 Marc E. Bassy to      109 0.0170     0      0
## # … with 1,838 more rows
```

---

## Re-calculating tf-idf

```r
ldoc_words %>%
  bind_tf_idf(word, artist, n) %>%
  arrange(-tf_idf)
```

```
## # A tibble: 1,848 x 6
##    artist        word        n      tf   idf  tf_idf
##    <chr>         <chr>   <int>   <dbl> <dbl>   <dbl>
##  1 Seeb          anybody    30 0.0154  1.10  0.0169 
##  2 Seeb          waking     18 0.00925 1.10  0.0102 
##  3 Seeb          high       34 0.0175  0.405 0.00708
##  4 Quinn XCII    worst      23 0.00605 1.10  0.00665
##  5 Seeb          human      10 0.00514 1.10  0.00565
##  6 Marc E. Bassy yeah       85 0.0133  0.405 0.00539
##  7 Quinn XCII    another    18 0.00473 1.10  0.00520
##  8 Marc E. Bassy plot       30 0.00469 1.10  0.00515
##  9 Marc E. Bassy twist      30 0.00469 1.10  0.00515
## 10 Seeb          can        23 0.0118  0.405 0.00479
## # … with 1,838 more rows
```
…
