Text analysis 📃
…
---

## What is tidy text?

```r
text_df %>%
  unnest_tokens(word, text)
```

```
## # A tibble: 32 x 2
##     line word   
##    <int> <chr>  
##  1     1 take   
##  2     1 me     
##  3     1 out    
##  4     1 tonight
##  5     2 where  
##  6     2 there's
##  7     2 music  
##  8     2 and    
##  9     2 there's
## 10     2 people 
## # … with 22 more rows
```
…
---

## From the "Getting to know you" survey

> "What are your 3 - 5 most favorite songs right now?"

.midi[

```r
listening <- read_csv("data/listening.csv")
listening
```

```
## # A tibble: 104 x 1
##    songs                                                                                                                          
##    <chr>                                                                                                                          
##  1 Gamma Knife - King Gizzard and the Lizard Wizard; Self Immolate - King Gizzard and the Lizard Wizard; Take Control - Old Gods …
##  2 I dont listen to much music                                                                                                    
##  3 Mess by Ed Sheeran, Take me back to london by Ed Sheeran and Sounds of the Skeng by Stormzy                                    
##  4 Hate Me (Sometimes) - Stand Atlantic; Edge of Seventeen - Stevie Nicks; It's Not Living (If It's Not With You) - The 1975; Peo…
##  5 whistle, gogobebe, sassy me                                                                                                    
##  6 Shofukan, Think twice, Padiddle                                                                                                
##  7 Groundislava - Feel the Heat (Indecorum Remix), Nominal - Everyday Everyone and Akon - locked up (Solomon Eves DNB Remix)      
##  8 Loving you - passion the musical, Senorita - Shawn Mendes and Camilla Cabello, all the good girls go to hell - Billie Eilish   
##  9 lay it down slow - spiritualised, dead boys - Sam Fender, figure it out - Royal Blood                                          
## 10 Don't Stop Me Now (Queen), Finale (Toby Fox), Machine in the Walls (Mudeth)                                                    
## # … with 94 more rows
```
…
---

## Looking for commonalities

.midi[

```r
listening %>%
  unnest_tokens(word, songs) %>%
  count(word, sort = TRUE)
```

```
## # A tibble: 786 x 2
##    word      n
##    <chr> <int>
##  1 the      56
##  2 by       23
##  3 to       20
##  4 and      19
##  5 i        19
##  6 you      15
##  7 of       13
##  8 a        11
##  9 in       11
## 10 me       10
## # … with 776 more rows
```
…
## Stop words

- In computing, stop words are words which are filtered out before or after processing of natural language data (text).
- They usually refer to the most common words in a language, but there is not a single list of stop words used by all natural language processing tools.

---

## English stop words

```r
get_stopwords()
```

```
## # A tibble: 175 x 2
##    word      lexicon 
##    <chr>     <chr>   
##  1 i         snowball
##  2 me        snowball
##  3 my        snowball
##  4 myself    snowball
##  5 we        snowball
##  6 our       snowball
##  7 ours      snowball
##  8 ourselves snowball
##  9 you       snowball
## 10 your      snowball
## # … with 165 more rows
```

---

## Spanish stop words

```r
get_stopwords(language = "es")
```

```
## # A tibble: 308 x 2
##    word  lexicon 
##    <chr> <chr>   
##  1 de    snowball
##  2 la    snowball
##  3 que   snowball
##  4 el    snowball
##  5 en    snowball
##  6 y     snowball
##  7 a     snowball
##  8 los   snowball
##  9 del   snowball
## 10 se    snowball
## # … with 298 more rows
```

---

## Various lexicons

See `?get_stopwords` for more info.

.midi[

```r
get_stopwords(source = "smart")
```

```
## # A tibble: 571 x 2
##    word        lexicon
##    <chr>       <chr>  
##  1 a           smart  
##  2 a's         smart  
##  3 able        smart  
##  4 about       smart  
##  5 above       smart  
##  6 according   smart  
##  7 accordingly smart  
##  8 across      smart  
##  9 actually    smart  
## 10 after       smart  
## # … with 561 more rows
```
…
```r
listening %>%
  unnest_tokens(word, songs) %>%
* anti_join(stop_words) %>%
* filter(!(word %in% c("1", "2", "3", "4", "5"))) %>%
  count(word, sort = TRUE)
```

```
## Joining, by = "word"
```

```
## # A tibble: 640 x 2
##    word        n
##    <chr>   <int>
##  1 ed          7
##  2 queen       7
##  3 sheeran     7
##  4 love        6
##  5 bad         5
##  6 time        5
##  7 1975        4
##  8 dog         4
##  9 king        4
## 10 life        4
## # … with 630 more rows
```
…
```r
top20_songs %>%
  arrange(desc(n))
```

```
## # A tibble: 41 x 2
##    word        n
##    <chr>   <int>
##  1 ed          7
##  2 queen       7
##  3 sheeran     7
##  4 love        6
##  5 bad         5
##  6 time        5
##  7 1975        4
##  8 dog         4
##  9 king        4
## 10 life        4
## # … with 31 more rows
```
…
]

---

## How long are Ed Sheeran's songs?

Length measured by number of lines

```r
sheeran %>%
  count(track_title, sort = TRUE)
```

```
## # A tibble: 74 x 2
##    track_title                                              n
##    <chr>                                                <int>
##  1 Take It Back                                           101
##  2 South of the Border (Ft. Camila Cabello & Cardi B)      77
##  3 Remember the Name (Ft. 50 Cent & Eminem)                76
##  4 Take Me Back to London (Ft. Stormzy)                    75
##  5 Don't                                                   74
##  6 Reuf by Nekfeu (Ft. Ed Sheeran)                         74
##  7 Sing! (Ft. Pharrell Williams)                           72
##  8 Nothing on You (Ft. Dave & Paulo Londra)                67
##  9 1000 Nights (Ft. A Boogie wit da Hoodie & Meek Mill)    66
## 10 Lay It All on Me by Rudimental (Ft. Ed Sheeran)         66
## # … with 64 more rows
```

---

## Tidy up your lyrics!

```r
sheeran_lyrics <- sheeran %>%
  unnest_tokens(word, lyric)

sheeran_lyrics
```

```
## # A tibble: 15,448 x 6
##    artist     album                       track_n  line track_title                                        word   
##    <chr>      <chr>                         <int> <int> <chr>                                              <chr>  
##  1 Ed Sheeran No.6 Collaborations Project       2     1 South of the Border (Ft. Camila Cabello & Cardi B) she    
##  2 Ed Sheeran No.6 Collaborations Project       2     1 South of the Border (Ft. Camila Cabello & Cardi B) got    
##  3 Ed Sheeran No.6 Collaborations Project       2     1 South of the Border (Ft. Camila Cabello & Cardi B) the    
##  4 Ed Sheeran No.6 Collaborations Project       2     1 South of the Border (Ft. Camila Cabello & Cardi B) mmm    
##  5 Ed Sheeran No.6 Collaborations Project       2     1 South of the Border (Ft. Camila Cabello & Cardi B) brown  
##  6 Ed Sheeran No.6 Collaborations Project       2     1 South of the Border (Ft. Camila Cabello & Cardi B) eyes   
##  7 Ed Sheeran No.6 Collaborations Project       2     1 South of the Border (Ft. Camila Cabello & Cardi B) caramel
##  8 Ed Sheeran No.6 Collaborations Project       2     1 South of the Border (Ft. Camila Cabello & Cardi B) thighs 
##  9 Ed Sheeran No.6 Collaborations Project       2     2 South of the Border (Ft. Camila Cabello & Cardi B) long   
## 10 Ed Sheeran No.6 Collaborations Project       2     2 South of the Border (Ft. Camila Cabello & Cardi B) hair   
## # … with 15,438 more rows
```

---

## What are the most common words?

```r
sheeran_lyrics %>%
  count(word, sort = TRUE)
```

```
## # A tibble: 2,308 x 2
##    word      n
##    <chr> <int>
##  1 i       524
##  2 you     514
##  3 the     481
##  4 and     452
##  5 my      349
##  6 me      310
##  7 to      304
##  8 a       285
##  9 in      242
## 10 on      231
## # … with 2,298 more rows
```
…
.midi[

```r
sheeran_lyrics %>%
  anti_join(stop_words) %>%
  count(word, sort = TRUE)
```

```
## Joining, by = "word"
```

```
## # A tibble: 1,946 x 2
##    word      n
##    <chr> <int>
##  1 love    161
##  2 home     68
##  3 time     53
##  4 feel     48
##  5 wanna    47
##  6 baby     46
##  7 life     42
##  8 <NA>     38
##  9 lay      37
## 10 eyes     36
## # … with 1,936 more rows
```
…
- One way to analyze the sentiment of a text is to consider the text as a combination of its individual words 
- and the sentiment content of the whole text as the sum of the sentiment content of the individual words

---

## Sentiment lexicons

.pull-left[

```r
get_sentiments("afinn")
```

```
## # A tibble: 2,477 x 2
##    word       value
##    <chr>      <dbl>
##  1 abandon       -2
##  2 abandoned     -2
##  3 abandons      -2
##  4 abducted      -2
##  5 abduction     -2
##  6 abductions    -2
##  7 abhor         -3
##  8 abhorred      -3
##  9 abhorrent     -3
## 10 abhors        -3
## # … with 2,467 more rows
```
]
.pull-right[

```r
get_sentiments("bing") 
```

```
## # A tibble: 6,786 x 2
##    word        sentiment
##    <chr>       <chr>    
##  1 2-faces     negative 
##  2 abnormal    negative 
##  3 abolish     negative 
##  4 abominable  negative 
##  5 abominably  negative 
##  6 abominate   negative 
##  7 abomination negative 
##  8 abort       negative 
##  9 aborted     negative 
## 10 aborts      negative 
## # … with 6,776 more rows
```
]

---

## Sentiment lexicons

.pull-left[

```r
get_sentiments("nrc")
```

```
## # A tibble: 13,901 x 2
##    word        sentiment
##    <chr>       <chr>    
##  1 abacus      trust    
##  2 abandon     fear     
##  3 abandon     negative 
##  4 abandon     sadness  
##  5 abandoned   anger    
##  6 abandoned   fear     
##  7 abandoned   negative 
##  8 abandoned   sadness  
##  9 abandonment anger    
## 10 abandonment fear     
## # … with 13,891 more rows
```
]
.pull-right[

```r
get_sentiments("loughran") 
```

```
## # A tibble: 4,150 x 2
##    word         sentiment
##    <chr>        <chr>    
##  1 abandon      negative 
##  2 abandoned    negative 
##  3 abandoning   negative 
##  4 abandonment  negative 
##  5 abandonments negative 
##  6 abandons     negative 
##  7 abdicated    negative 
##  8 abdicates    negative 
##  9 abdicating   negative 
## 10 abdication   negative 
## # … with 4,140 more rows
```
…
.midi[

```r
sheeran_lyrics %>%
  inner_join(get_sentiments("bing")) %>%
  count(sentiment, word, sort = TRUE)
```

```
## Joining, by = "word"
```

```
## # A tibble: 245 x 3
##    sentiment word        n
##    <chr>     <chr>   <int>
##  1 positive  love      161
##  2 positive  like      127
##  3 positive  right      21
##  4 positive  darling    18
##  5 negative  drunk      17
##  6 negative  hurting    16
##  7 negative  cold       15
##  8 negative  shit       14
##  9 positive  free       14
## 10 positive  lover      14
## # … with 235 more rows
```
…
### Step 1: Top 10 words for each sentiment

.midi[

```r
sheeran_lyrics %>%
  inner_join(get_sentiments("bing")) %>%
  count(sentiment, word) %>%
  group_by(sentiment) %>%
  top_n(10) 
```

```
## # A tibble: 21 x 3
## # Groups:   sentiment [2]
##    sentiment word        n
##    <chr>     <chr>   <int>
##  1 negative  cold       15
##  2 negative  drunk      17
##  3 negative  fall       13
##  4 negative  fell       11
##  5 negative  fuck        9
##  6 negative  hurt       10
##  7 negative  hurting    16
##  8 negative  miss       12
##  9 negative  shit       14
## 10 negative  wrong       8
## # … with 11 more rows
```
…
### Step 2: `ungroup()`

.midi[

```r
sheeran_lyrics %>%
  inner_join(get_sentiments("bing")) %>%
  count(sentiment, word) %>%
  group_by(sentiment) %>%
  top_n(10) %>%
  ungroup()
```

```
## # A tibble: 21 x 3
##    sentiment word        n
##    <chr>     <chr>   <int>
##  1 negative  cold       15
##  2 negative  drunk      17
##  3 negative  fall       13
##  4 negative  fell       11
##  5 negative  fuck        9
##  6 negative  hurt       10
##  7 negative  hurting    16
##  8 negative  miss       12
##  9 negative  shit       14
## 10 negative  wrong       8
## # … with 11 more rows
```
…
.small[

```r
sheeran_lyrics %>%
  anti_join(stop_words) %>%
  left_join(get_sentiments("afinn")) 
```

```
## Joining, by = "word"
## Joining, by = "word"
```

```
## # A tibble: 5,190 x 7
##    artist     album                       track_n  line track_title                                        word    value
##    <chr>      <chr>                         <int> <int> <chr>                                              <chr>   <dbl>
##  1 Ed Sheeran No.6 Collaborations Project       2     1 South of the Border (Ft. Camila Cabello & Cardi B) mmm        NA
##  2 Ed Sheeran No.6 Collaborations Project       2     1 South of the Border (Ft. Camila Cabello & Cardi B) brown      NA
##  3 Ed Sheeran No.6 Collaborations Project       2     1 South of the Border (Ft. Camila Cabello & Cardi B) eyes       NA
##  4 Ed Sheeran No.6 Collaborations Project       2     1 South of the Border (Ft. Camila Cabello & Cardi B) caramel    NA
##  5 Ed Sheeran No.6 Collaborations Project       2     1 South of the Border (Ft. Camila Cabello & Cardi B) thighs     NA
##  6 Ed Sheeran No.6 Collaborations Project       2     2 South of the Border (Ft. Camila Cabello & Cardi B) hair       NA
##  7 Ed Sheeran No.6 Collaborations Project       2     2 South of the Border (Ft. Camila Cabello & Cardi B) wedding    NA
##  8 Ed Sheeran No.6 Collaborations Project       2     2 South of the Border (Ft. Camila Cabello & Cardi B) ring       NA
##  9 Ed Sheeran No.6 Collaborations Project       2     2 South of the Border (Ft. Camila Cabello & Cardi B) hey        NA
## 10 Ed Sheeran No.6 Collaborations Project       2     3 South of the Border (Ft. Camila Cabello & Cardi B) lookin     NA
## # … with 5,180 more rows
```
…
