Data types and recoding 💽
…
---

## Example: Cat lovers

A survey asked respondents their name and number of cats. The instructions said to enter the number of cats as a numerical value.

```r
cat_lovers <- read_csv("data/cat-lovers.csv")
```

```
## # A tibble: 60 x 3
##    name           number_of_cats handedness
##    <chr>          <chr>          <chr>     
##  1 Bernice Warren 0              left      
##  2 Woodrow Stone  0              left      
##  3 Willie Bass    1              left      
##  4 Tyrone Estrada 3              left      
##  5 Alex Daniels   3              left      
##  6 Jane Bates     2              left      
##  7 Latoya Simpson 1              left      
##  8 Darin Woods    1              left      
##  9 Agnes Cobb     0              left      
## 10 Tabitha Grant  0              left      
## # … with 50 more rows
```
…
---

.discussion[
Calculate and visualise the number of bookings on any given arrival date.
]

```r
hotels %>%
  select(starts_with("arrival_"))
```

```
## # A tibble: 119,390 x 4
##    arrival_date_year arrival_date_month arrival_date_week_number arrival_date_day_of_month
##                <dbl> <chr>                                 <dbl>                     <dbl>
##  1              2015 July                                     27                         1
##  2              2015 July                                     27                         1
##  3              2015 July                                     27                         1
##  4              2015 July                                     27                         1
##  5              2015 July                                     27                         1
##  6              2015 July                                     27                         1
##  7              2015 July                                     27                         1
##  8              2015 July                                     27                         1
##  9              2015 July                                     27                         1
## 10              2015 July                                     27                         1
## # … with 119,380 more rows
```
…
.midi[

```r
library(glue)

hotels %>%
  mutate(
*   arrival_date = glue("{arrival_date_year} {arrival_date_month} {arrival_date_day_of_month}")
    ) %>% 
  select(starts_with("arrival_"))
```

```
## # A tibble: 119,390 x 5
##    arrival_date_year arrival_date_mon… arrival_date_week… arrival_date_day_o… arrival_date
##                <dbl> <chr>                          <dbl>               <dbl> <glue>      
##  1              2015 July                              27                   1 2015 July 1 
##  2              2015 July                              27                   1 2015 July 1 
##  3              2015 July                              27                   1 2015 July 1 
##  4              2015 July                              27                   1 2015 July 1 
##  5              2015 July                              27                   1 2015 July 1 
##  6              2015 July                              27                   1 2015 July 1 
##  7              2015 July                              27                   1 2015 July 1 
##  8              2015 July                              27                   1 2015 July 1 
##  9              2015 July                              27                   1 2015 July 1 
## 10              2015 July                              27                   1 2015 July 1 
## # … with 119,380 more rows
```
…
---

### Step 2. Count number of bookings per date.

.midi[

```r
hotels %>%
  mutate(arrival_date = glue("{arrival_date_year} {arrival_date_month} {arrival_date_day_of_month}")) %>%
  count(arrival_date)
```

```
## # A tibble: 793 x 2
##    arrival_date       n
##    <glue>         <int>
##  1 2015 August 1    110
##  2 2015 August 10   207
##  3 2015 August 11   117
##  4 2015 August 12   133
##  5 2015 August 13   107
##  6 2015 August 14   329
##  7 2015 August 15   190
##  8 2015 August 16    98
##  9 2015 August 17   188
## 10 2015 August 18    94
## # … with 783 more rows
```
…
.midi[

```r
library(lubridate)

hotels %>%
  mutate(
*   arrival_date = ymd(glue("{arrival_date_year} {arrival_date_month} {arrival_date_day_of_month}"))
    ) %>% 
  select(starts_with("arrival_"))
```

```
## # A tibble: 119,390 x 5
##    arrival_date_year arrival_date_mon… arrival_date_week… arrival_date_day_o… arrival_date
##                <dbl> <chr>                          <dbl>               <dbl> <date>      
##  1              2015 July                              27                   1 2015-07-01  
##  2              2015 July                              27                   1 2015-07-01  
##  3              2015 July                              27                   1 2015-07-01  
##  4              2015 July                              27                   1 2015-07-01  
##  5              2015 July                              27                   1 2015-07-01  
##  6              2015 July                              27                   1 2015-07-01  
##  7              2015 July                              27                   1 2015-07-01  
##  8              2015 July                              27                   1 2015-07-01  
##  9              2015 July                              27                   1 2015-07-01  
## 10              2015 July                              27                   1 2015-07-01  
## # … with 119,380 more rows
```
…
---

### Step 2. Count number of bookings per date.

.midi[

```r
hotels %>%
  mutate(arrival_date = ymd(glue("{arrival_date_year} {arrival_date_month} {arrival_date_day_of_month}"))) %>% 
  count(arrival_date)
```

```
## # A tibble: 793 x 2
##    arrival_date     n
##    <date>       <int>
##  1 2015-07-01     122
##  2 2015-07-02      93
##  3 2015-07-03      56
##  4 2015-07-04      88
##  5 2015-07-05      53
##  6 2015-07-06      75
##  7 2015-07-07      54
##  8 2015-07-08      69
##  9 2015-07-09      80
## 10 2015-07-10      51
## # … with 783 more rows
```
…
