Text analysis
…
---

## What is tidy text?

```r
text_df %>%
  unnest_tokens(word, text) %>%
  print(n = 10)
```

```
## # A tibble: 80 × 2
##     line word 
##    <int> <chr>
##  1     1 oh   
##  2     1 get  
##  3     1 me   
##  4     1 away 
##  5     1 from 
##  6     1 here 
##  7     1 i'm  
##  8     1 dying
##  9     2 play 
## 10     2 me   
## # … with 70 more rows
```
…
