Cross validation
…
background-image: url("img/the-office.jpeg")
class: middle

---

## Data

```r
office_ratings <- read_csv("data/office_ratings.csv")
office_ratings
```

```
## # A tibble: 188 x 6
##   season episode title         imdb_rating total_votes air_date  
##    <dbl>   <dbl> <chr>               <dbl>       <dbl> <date>    
## 1      1       1 Pilot                 7.6        3706 2005-03-24
## 2      1       2 Diversity Day         8.3        3566 2005-03-29
## 3      1       3 Health Care           7.9        2983 2005-04-05
## 4      1       4 The Alliance          8.1        2886 2005-04-12
## 5      1       5 Basketball            8.4        3179 2005-04-19
## 6      1       6 Hot Girl              7.8        2852 2005-04-26
## # … with 182 more rows
```
…
# Evaluate model

---

## Make predictions for training data

```r
office_train_pred <- predict(office_fit, office_train) %>%
  bind_cols(office_train %>% select(imdb_rating, title))

office_train_pred
```

```
## # A tibble: 141 x 3
##   .pred imdb_rating title        
##   <dbl>       <dbl> <chr>        
## 1  8.48         7.6 Pilot        
## 2  8.45         8.3 Diversity Day
## 3  8.10         8.1 The Alliance 
## 4  8.30         8.4 Basketball   
## 5  8.18         7.8 Hot Girl     
## 6  8.90         8.7 The Dundies  
## # … with 135 more rows
```
…
---

## Make predictions for testing data

```r
office_test_pred <- predict(office_fit, office_test) %>%
  bind_cols(office_test %>% select(imdb_rating, title))

office_test_pred
```

```
## # A tibble: 47 x 3
##   .pred imdb_rating title             
##   <dbl>       <dbl> <chr>             
## 1  8.11         7.9 Health Care       
## 2  8.68         8.2 Halloween         
## 3  8.36         8.3 The Secret        
## 4  8.56         8.1 Michael's Birthday
## 5  8.47         8   Grief Counseling  
## 6  8.49         8.2 Initiation        
## # … with 41 more rows
```
…
