Text analysis 📃
…
---

## What is tidy text?

```r
text_df <- tibble(line = 1:7, text = text)

text_df
```

```
## # A tibble: 7 × 2
##    line text                                  
##   <int> <chr>                                 
## 1     1 Take me out tonight                   
## 2     2 Where there's music and there's people
## 3     3 And they're young and alive           
## 4     4 Driving in your car                   
## 5     5 I never never want to go home         
## 6     6 Because I haven't got one             
## # … with 1 more row
```

---

## What is tidy text?

```r
text_df %>%
  unnest_tokens(word, text)
```

```
## # A tibble: 32 × 2
##    line word   
##   <int> <chr>  
## 1     1 take   
## 2     1 me     
## 3     1 out    
## 4     1 tonight
## 5     2 where  
## 6     2 there's
## # … with 26 more rows
```
…
---

## From the "Getting to know you" survey

> "What are your 3 - 5 most favorite songs right now?"

.midi[

```r
listening <- read_csv("data/listening.csv")
listening
```

```
## # A tibble: 104 × 1
##   songs                                                          
##   <chr>                                                          
## 1 Gamma Knife - King Gizzard and the Lizard Wizard; Self Immolat…
## 2 I dont listen to much music                                    
## 3 Mess by Ed Sheeran, Take me back to london by Ed Sheeran and S…
## 4 Hate Me (Sometimes) - Stand Atlantic; Edge of Seventeen - Stev…
## 5 whistle, gogobebe, sassy me                                    
## 6 Shofukan, Think twice, Padiddle                                
## # … with 98 more rows
```
…
---

## Looking for commonalities

.midi[

```r
listening %>%
  unnest_tokens(word, songs) %>%
  count(word, sort = TRUE)
```

```
## # A tibble: 786 × 2
##   word      n
##   <chr> <int>
## 1 the      56
## 2 by       23
## 3 to       20
## 4 and      19
## 5 i        19
## 6 you      15
## # … with 780 more rows
```
…
## Stop words

- In computing, stop words are words which are filtered out before or after processing of natural language data (text).
- They usually refer to the most common words in a language, but there is not a single list of stop words used by all natural language processing tools.

---

## English stop words

```r
get_stopwords()
```

```
## # A tibble: 175 × 2
##   word   lexicon 
##   <chr>  <chr>   
## 1 i      snowball
## 2 me     snowball
## 3 my     snowball
## 4 myself snowball
## 5 we     snowball
## 6 our    snowball
## # … with 169 more rows
```

---

## Spanish stop words

```r
get_stopwords(language = "es")
```

```
## # A tibble: 308 × 2
##   word  lexicon 
##   <chr> <chr>   
## 1 de    snowball
## 2 la    snowball
## 3 que   snowball
## 4 el    snowball
## 5 en    snowball
## 6 y     snowball
## # … with 302 more rows
```

---

## Various lexicons

See `?get_stopwords` for more info.

.midi[

```r
get_stopwords(source = "smart")
```

```
## # A tibble: 571 × 2
##   word      lexicon
##   <chr>     <chr>  
## 1 a         smart  
## 2 a's       smart  
## 3 able      smart  
## 4 about     smart  
## 5 above     smart  
## 6 according smart  
## # … with 565 more rows
```
…
## Back to: Looking for commonalities

.small[

```r
listening %>%
  unnest_tokens(word, songs) %>%
* anti_join(stop_words) %>%
* filter(!(word %in% c("1", "2", "3", "4", "5"))) %>%
  count(word, sort = TRUE)
```

```
## # A tibble: 640 × 2
##   word        n
##   <chr>   <int>
## 1 ed          7
## 2 queen       7
## 3 sheeran     7
## 4 love        6
## 5 bad         5
## 6 time        5
## # … with 634 more rows
```
…
```r
top20_songs %>%
  arrange(desc(n))
```

```
## # A tibble: 41 × 2
##   word        n
##   <chr>   <int>
## 1 ed          7
## 2 queen       7
## 3 sheeran     7
## 4 love        6
## 5 bad         5
## 6 time        5
## # … with 35 more rows
```
…
]

---

## How long are Ed Sheeran's songs?

Length measured by number of lines

```r
sheeran %>%
  count(track_title, sort = TRUE)
```

```
## # A tibble: 107 × 2
##   track_title          n
##   <chr>            <int>
## 1 The City             2
## 2 Addicted             1
## 3 Afire Love           1
## 4 All Of The Stars     1
## 5 Autumn Leaves        1
## 6 Barcelona            1
## # … with 101 more rows
```

---

## Tidy up your lyrics!

```r
sheeran_lyrics <- sheeran %>%
  unnest_tokens(word, lyric)

sheeran_lyrics
```

```
## # A tibble: 38,576 × 4
##   album          track_title  Year word    
##   <chr>          <chr>       <dbl> <chr>   
## 1 EP Orange Room I Love you   2005 i'm     
## 2 EP Orange Room I Love you   2005 standing
## 3 EP Orange Room I Love you   2005 on      
## 4 EP Orange Room I Love you   2005 a       
## 5 EP Orange Room I Love you   2005 mountain
## 6 EP Orange Room I Love you   2005 waiting 
## # … with 38,570 more rows
```

---

## What are the most common words?

```r
sheeran_lyrics %>%
  count(word, sort = TRUE)
```

```
## # A tibble: 3,493 × 2
##   word      n
##   <chr> <int>
## 1 i      1545
## 2 the    1403
## 3 you    1333
## 4 and    1150
## 5 my     1007
## 6 to      890
## # … with 3,487 more rows
```

---

## What a romantic!

.midi[

```r
sheeran_lyrics %>%
  anti_join(stop_words) %>%
  count(word, sort = TRUE)
```

```
## # A tibble: 3,034 × 2
##   word      n
##   <chr> <int>
## 1 love    353
## 2 home    112
## 3 feel    109
## 4 time    105
## 5 wanna   105
## 6 eyes     89
## # … with 3,028 more rows
```
…
- One way to analyze the sentiment of a text is to consider the text as a combination of its individual words 
- and the sentiment content of the whole text as the sum of the sentiment content of the individual words

---

## Sentiment lexicons

.pull-left[

```r
get_sentiments("afinn")
```

```
## # A tibble: 2,477 × 2
##   word       value
##   <chr>      <dbl>
## 1 abandon       -2
## 2 abandoned     -2
## 3 abandons      -2
## 4 abducted      -2
## 5 abduction     -2
## 6 abductions    -2
## # … with 2,471 more rows
```
]
.pull-right[

```r
get_sentiments("bing") 
```

```
## # A tibble: 6,786 × 2
##   word       sentiment
##   <chr>      <chr>    
## 1 2-faces    negative 
## 2 abnormal   negative 
## 3 abolish    negative 
## 4 abominable negative 
## 5 abominably negative 
## 6 abominate  negative 
## # … with 6,780 more rows
```
]

---

## Sentiment lexicons

.pull-left[

```r
get_sentiments("nrc")
```

```
## # A tibble: 13,875 × 2
##   word      sentiment
##   <chr>     <chr>    
## 1 abacus    trust    
## 2 abandon   fear     
## 3 abandon   negative 
## 4 abandon   sadness  
## 5 abandoned anger    
## 6 abandoned fear     
## # … with 13,869 more rows
```
]
.pull-right[

```r
get_sentiments("loughran") 
```

```
## # A tibble: 4,150 × 2
##   word         sentiment
##   <chr>        <chr>    
## 1 abandon      negative 
## 2 abandoned    negative 
## 3 abandoning   negative 
## 4 abandonment  negative 
## 5 abandonments negative 
## 6 abandons     negative 
## # … with 4,144 more rows
```
…
---

## Sentiments in Sheeran's lyrics

.midi[

```r
sheeran_lyrics %>%
  inner_join(get_sentiments("bing")) %>%
  count(sentiment, word, sort = TRUE)
```

```
## # A tibble: 523 × 3
##   sentiment word      n
##   <chr>     <chr> <int>
## 1 positive  love    353
## 2 positive  like    231
## 3 positive  right    55
## 4 negative  fall     54
## 5 negative  cold     45
## 6 positive  well     40
## # … with 517 more rows
```
…
### Step 1: Top 10 words for each sentiment

.midi[

```r
sheeran_lyrics %>%
  inner_join(get_sentiments("bing")) %>%
  count(sentiment, word) %>%
  group_by(sentiment) %>%
  top_n(10) 
```

```
## # A tibble: 20 × 3
## # Groups:   sentiment [2]
##   sentiment word        n
##   <chr>     <chr>   <int>
## 1 negative  break      28
## 2 negative  broken     21
## 3 negative  cold       45
## 4 negative  drunk      27
## 5 negative  fall       54
## 6 negative  falling    29
## # … with 14 more rows
```
…
### Step 2: `ungroup()`

.midi[

```r
sheeran_lyrics %>%
  inner_join(get_sentiments("bing")) %>%
  count(sentiment, word) %>%
  group_by(sentiment) %>%
  top_n(10) %>%
  ungroup()
```

```
## # A tibble: 20 × 3
##   sentiment word        n
##   <chr>     <chr>   <int>
## 1 negative  break      28
## 2 negative  broken     21
## 3 negative  cold       45
## 4 negative  drunk      27
## 5 negative  fall       54
## 6 negative  falling    29
## # … with 14 more rows
```
…
---

## Assign a sentiment score

.small[

```r
sheeran_lyrics %>%
  anti_join(stop_words) %>%
  left_join(get_sentiments("afinn")) 
```

```
## # A tibble: 11,861 × 5
##   album          track_title  Year word     value
##   <chr>          <chr>       <dbl> <chr>    <dbl>
## 1 EP Orange Room I Love you   2005 standing    NA
## 2 EP Orange Room I Love you   2005 mountain    NA
## 3 EP Orange Room I Love you   2005 waiting     NA
## 4 EP Orange Room I Love you   2005 sitting     NA
## 5 EP Orange Room I Love you   2005 counting    NA
## 6 EP Orange Room I Love you   2005 days        NA
## # … with 11,855 more rows
```
…
---

```r
sheeran_lyrics %>%
  anti_join(stop_words) %>%
  left_join(get_sentiments("afinn")) %>%
  filter(!is.na(value)) %>%
  group_by(album) %>%
  summarise(total_sentiment = sum(value)) %>%
  arrange(total_sentiment)
```

```
## # A tibble: 10 × 2
##   album                  total_sentiment
##   <chr>                            <dbl>
## 1 The Slumdon Bridge                -136
## 2 Want Some?                        -106
## 3 Ed Sheeran                        -101
## 4 You Need Me                        -28
## 5 Loose Change                       -15
## 6 Songs I Wrote With Amy               7
## # … with 4 more rows
```
…
