Tidy data and data wrangling
…
---

## `filter`

for crashes in Durham County

```r
bike %>%
  filter(County == "Durham")
```

```
## # A tibble: 253 x 54
##      FID OBJECTID AmbulanceR BikeAge_Gr Bike_Age Bike_Alc_D Bike_Dir      
##    <int>    <int> <chr>      <chr>         <int> <chr>      <chr>         
##  1    18       19 No         <NA>              6 No         Not Applicable
##  2    53       54 Yes        50-59            52 No         With Traffic  
##  3    56       57 Yes        16-19            18 No         <NA>          
##  4   209      210 No         16-19            16 No         Facing Traffic
##  5   228      229 Yes        40-49            40 No         With Traffic  
##  6   620      621 Yes        50-59            55 No         With Traffic  
##  7   667      668 Yes        60-69            61 No         Not Applicable
##  8   458      459 Yes        60-69            62 No         With Traffic  
##  9   576      577 No         40-49            49 No         With Traffic  
## 10   618      619 No         20-24            23 No         With Traffic  
## # ... with 243 more rows, and 47 more variables: Bike_Injur <chr>,
## #   Bike_Pos <chr>, Bike_Race <chr>, Bike_Sex <chr>, City <chr>,
## #   County <chr>, CrashAlcoh <chr>, CrashDay <chr>, Crash_Date <date>,
## #   Crash_Grp <chr>, Crash_Hour <int>, Crash_Loc <chr>, Crash_Mont <chr>,
## #   Crash_Time <dttm>, Crash_Type <chr>, Crash_Ty_1 <int>,
## #   Crash_Year <int>, Crsh_Sevri <chr>, Developmen <chr>,
## #   DrvrAge_Gr <chr>, Drvr_Age <int>, Drvr_Alc_D <chr>, Drvr_EstSp <chr>,
## #   Drvr_Injur <chr>, Drvr_Race <chr>, Drvr_Sex <chr>, Drvr_VehTy <chr>,
## #   ExcsSpdInd <chr>, Hit_Run <chr>, Light_Cond <chr>, Locality <chr>,
…
---

## `transmute` to create a new dataset

You'll use this much less often than `mutate` but when you need it, you need it.

```r
bike %>% 
  transmute(ID = paste(FID, OBJECTID, sep = "-"))
```

```
## # A tibble: 5,716 x 1
##    ID   
##    <chr>
##  1 18-19
##  2 29-30
##  3 33-34
##  4 35-36
##  5 49-50
##  6 53-54
##  7 56-57
##  8 60-61
##  9 63-64
## 10 66-67
## # ... with 5,706 more rows
```
…
---

## or `select` to exclude variables

```r
bike %>%
  select(-OBJECTID)
```

```
## # A tibble: 5,716 x 53
##      FID AmbulanceR BikeAge_Gr Bike_Age Bike_Alc_D Bike_Dir   Bike_Injur  
##    <int> <chr>      <chr>         <int> <chr>      <chr>      <chr>       
##  1    18 No         <NA>              6 No         Not Appli… C: Possible…
##  2    29 Yes        50-59            51 No         With Traf… C: Possible…
##  3    33 No         <NA>             10 No         With Traf… Injury      
##  4    35 Yes        16-19            17 No         <NA>       B: Evident …
##  5    49 No         <NA>              6 No         Facing Tr… O: No Injury
##  6    53 Yes        50-59            52 No         With Traf… A: Disablin…
##  7    56 Yes        16-19            18 No         <NA>       C: Possible…
##  8    60 No         40-49            40 No         Facing Tr… B: Evident …
##  9    63 Yes        6-10              6 No         Facing Tr… B: Evident …
## 10    66 Yes        6-10              7 No         <NA>       B: Evident …
## # ... with 5,706 more rows, and 46 more variables: Bike_Pos <chr>,
## #   Bike_Race <chr>, Bike_Sex <chr>, City <chr>, County <chr>,
## #   CrashAlcoh <chr>, CrashDay <chr>, Crash_Date <date>, Crash_Grp <chr>,
## #   Crash_Hour <int>, Crash_Loc <chr>, Crash_Mont <chr>,
## #   Crash_Time <dttm>, Crash_Type <chr>, Crash_Ty_1 <int>,
## #   Crash_Year <int>, Crsh_Sevri <chr>, Developmen <chr>,
## #   DrvrAge_Gr <chr>, Drvr_Age <int>, Drvr_Alc_D <chr>, Drvr_EstSp <chr>,
## #   Drvr_Injur <chr>, Drvr_Race <chr>, Drvr_Sex <chr>, Drvr_VehTy <chr>,
## #   ExcsSpdInd <chr>, Hit_Run <chr>, Light_Cond <chr>, Locality <chr>,
…
---

## or `select` a range of variables

```r
bike %>%
  select(OBJECTID:Bike_Injur)
```

```
## # A tibble: 5,716 x 7
##    OBJECTID AmbulanceR BikeAge_Gr Bike_Age Bike_Alc_D Bike_Dir  Bike_Injur
##       <int> <chr>      <chr>         <int> <chr>      <chr>     <chr>     
##  1       19 No         <NA>              6 No         Not Appl… C: Possib…
##  2       30 Yes        50-59            51 No         With Tra… C: Possib…
##  3       34 No         <NA>             10 No         With Tra… Injury    
##  4       36 Yes        16-19            17 No         <NA>      B: Eviden…
##  5       50 No         <NA>              6 No         Facing T… O: No Inj…
##  6       54 Yes        50-59            52 No         With Tra… A: Disabl…
##  7       57 Yes        16-19            18 No         <NA>      C: Possib…
##  8       61 No         40-49            40 No         Facing T… B: Eviden…
##  9       64 Yes        6-10              6 No         Facing T… B: Eviden…
## 10       67 Yes        6-10              7 No         <NA>      B: Eviden…
## # ... with 5,706 more rows
```
…
---

## `distinct` to filter for unique rows

```r
bike %>% 
  select(County, City) %>% 
  distinct() %>% 
  arrange(County, City)
```

```
## # A tibble: 360 x 2
##    County    City              
##    <chr>     <chr>             
##  1 Alamance  Alamance          
##  2 Alamance  Burlington        
##  3 Alamance  Elon College      
##  4 Alamance  Gibsonville       
##  5 Alamance  Graham            
##  6 Alamance  Green Level       
##  7 Alamance  Mebane            
##  8 Alamance  None - Rural Crash
##  9 Alexander None - Rural Crash
## 10 Alleghany None - Rural Crash
## # ... with 350 more rows
```
