Prediction and overfitting
…
---

## Predict outcome on the testing dataset

```r
predict(email_fit, test_data)
```

```
## # A tibble: 784 x 1
##   .pred_class
##   <fct>      
## 1 0          
## 2 0          
## 3 0          
## 4 0          
## 5 0          
## 6 0          
## # … with 778 more rows
```

---

## Predict probabilities on the testing dataset

```r
email_pred <- predict(email_fit, test_data, type = "prob") %>%
  bind_cols(test_data %>% select(spam, time))

email_pred
```

```
## # A tibble: 784 x 4
##   .pred_0 .pred_1 spam  time               
##     <dbl>   <dbl> <fct> <dttm>             
## 1   0.942 0.0581  0     2012-01-01 16:00:32
## 2   0.920 0.0804  0     2012-01-01 18:12:00
## 3   0.904 0.0960  0     2012-01-01 18:23:44
## 4   0.997 0.00304 0     2012-01-02 00:54:46
## 5   0.833 0.167   0     2012-01-02 01:58:14
## 6   0.849 0.151   0     2012-01-02 02:05:45
## # … with 778 more rows
```

---

## A closer look at predictions

.pull-left-wide[

```r
email_pred %>%
  arrange(desc(.pred_1)) %>%
  print(n = 10)
```

```
## # A tibble: 784 x 4
##    .pred_0 .pred_1 spam  time               
##      <dbl>   <dbl> <fct> <dttm>             
##  1  0.0381   0.962 1     2012-03-27 06:17:01
##  2  0.205    0.795 1     2012-02-21 08:34:56
*##  3  0.408    0.592 0     2012-02-03 13:25:39
##  4  0.412    0.588 1     2012-03-10 22:43:58
##  5  0.448    0.552 1     2012-02-14 19:45:19
##  6  0.462    0.538 1     2012-02-04 15:54:23
*##  7  0.469    0.531 0     2012-01-12 02:00:16
##  8  0.472    0.528 1     2012-01-25 16:17:54
##  9  0.477    0.523 1     2012-03-21 02:00:30
## 10  0.486    0.514 1     2012-03-16 21:39:28
## # … with 774 more rows
```
…
